%YAML 1.1
%TAG !u! tag:unity3d.com,2011:
--- !u!74 &7400000
AnimationClip:
  m_ObjectHideFlags: 0
  m_PrefabParentObject: {fileID: 0}
  m_PrefabInternal: {fileID: 0}
  m_Name: GrenadeThrow
  serializedVersion: 6
  m_Legacy: 0
  m_Compressed: 0
  m_UseHighQualityCurve: 1
  m_RotationCurves:
  - curve:
      serializedVersion: 2
      m_Curve:
      - serializedVersion: 2
        time: 0
        value: {x: 0.50263655, y: -0.49734545, z: -0.49734953, w: 0.5026406}
        inSlope: {x: 0, y: 0, z: 0, w: 0}
        outSlope: {x: 0, y: 0, z: 0, w: 0}
        tangentMode: 0
      - serializedVersion: 2
        time: 0.5
        value: {x: 0.50263655, y: -0.49734545, z: -0.49734953, w: 0.5026406}
        inSlope: {x: 0, y: 0, z: 0, w: 0}
        outSlope: {x: 0, y: 0, z: 0, w: 0}
        tangentMode: 0
      m_PreInfinity: 2
      m_PostInfinity: 2
      m_RotationOrder: 4
    path: Bone072
  - curve:
      serializedVersion: 2
      m_Curve:
      - serializedVersion: 2
        time: 0
        value: {x: -0.707094, y: 0.0037409223, z: -0.0037413414, w: 0.70709974}
        inSlope: {x: 0, y: 0, z: 0, w: 0}
        outSlope: {x: 0, y: 0, z: 0, w: 0}
        tangentMode: 0
      - serializedVersion: 2
        time: 0.5
        value: {x: -0.707094, y: 0.0037409223, z: -0.0037413414, w: 0.70709974}
        inSlope: {x: 0, y: 0, z: 0, w: 0}
        outSlope: {x: 0, y: 0, z: 0, w: 0}
        tangentMode: 0
      m_PreInfinity: 2
      m_PostInfinity: 2
      m_RotationOrder: 4
    path: Bone072/Bone067
  - curve:
      serializedVersion: 2
      m_Curve:
      - serializedVersion: 2
        time: 0
        value: {x: 0.87428766, y: 0.4854082, z: -2.9722677e-17, w: -5.353468e-17}
        inSlope: {x: 0, y: 0, z: 0, w: 0}
        outSlope: {x: 0, y: 0, z: 0, w: 0}
        tangentMode: 0
      - serializedVersion: 2
        time: 0.5
        value: {x: 0.87428766, y: 0.4854082, z: -2.9722677e-17, w: -5.353468e-17}
        inSlope: {x: 0, y: 0, z: 0, w: 0}
        outSlope: {x: 0, y: 0, z: 0, w: 0}
        tangentMode: 0
      m_PreInfinity: 2
      m_PostInfinity: 2
      m_RotationOrder: 4
    path: Bone072/Bone067/Bone059
  - curve:
      serializedVersion: 2
      m_Curve:
      - serializedVersion: 2
        time: 0
        value: {x: -0.092670865, y: 0.22040766, z: 0.393951, w: 0.8874881}
        inSlope: {x: 0.15485442, y: -0.23559673, z: 0.031814575, w: 0.058981773}
        outSlope: {x: 0.15485442, y: -0.23559673, z: 0.031814575, w: 0.058981773}
        tangentMode: 0
      - serializedVersion: 2
        time: 0.06666667
        value: {x: -0.07409644, y: 0.19225603, z: 0.3977148, w: 0.8940751}
        inSlope: {x: 0.4795793, y: -0.72223544, z: 0.094846025, w: 0.14832614}
        outSlope: {x: 0.4795793, y: -0.72223544, z: 0.094846025, w: 0.14832614}
        tangentMode: 0
      - serializedVersion: 2
        time: 0.23333335
        value: {x: 0.0033702024, y: 0.07750821, z: 0.41194254, w: 0.9079011}
        inSlope: {x: 0.081690006, y: -0.11928667, z: 0.013891608, w: 0.0043523316}
        outSlope: {x: 0.081690006, y: -0.11928667, z: 0.013891608, w: 0.0043523316}
        tangentMode: 0
      - serializedVersion: 2
        time: 0.3
        value: {x: 0.0033702024, y: 0.07750821, z: 0.41194254, w: 0.9079011}
        inSlope: {x: 0, y: 0, z: 0, w: 0}
        outSlope: {x: 0, y: 0, z: 0, w: 0}
        tangentMode: 0
      - serializedVersion: 2
        time: 0.33333334
        value: {x: 0.0033702024, y: 0.07750821, z: 0.41194254, w: 0.9079011}
        inSlope: {x: -0.38082495, y: 0.5580476, z: -0.06617055, w: -0.033162836}
        outSlope: {x: -0.38082495, y: 0.5580476, z: -0.06617055, w: -0.033162836}
        tangentMode: 0
      - serializedVersion: 2
        time: 0.36666667
        value: {x: -0.022018125, y: 0.11471138, z: 0.40753117, w: 0.90569025}
        inSlope: {x: -1.0754428, y: 1.590904, z: -0.19631258, w: -0.18075305}
        outSlope: {x: -1.0754428, y: 1.590904, z: -0.19631258, w: -0.18075305}
        tangentMode: 0
      - serializedVersion: 2
        time: 0.40000004
        value: {x: -0.06832602, y: 0.18356854, z: 0.39885503, w: 0.8958509}
        inSlope: {x: -1.0597905, y: 1.5854435, z: -0.20370251, w: -0.27303177}
        outSlope: {x: -1.0597905, y: 1.5854435, z: -0.20370251, w: -0.27303177}
        tangentMode: 0
      - serializedVersion: 2
        time: 0.43333337
        value: {x: -0.092670865, y: 0.22040766, z: 0.393951, w: 0.8874881}
        inSlope: {x: -0.3651727, y: 0.552587, z: -0.073560484, w: -0.12544157}
        outSlope: {x: -0.3651727, y: 0.552587, z: -0.073560484, w: -0.12544157}
        tangentMode: 0
      - serializedVersion: 2
        time: 0.4666667
        value: {x: -0.092670865, y: 0.22040766, z: 0.393951, w: 0.8874881}
        inSlope: {x: 0, y: 0, z: 0, w: 0}
        outSlope: {x: 0, y: 0, z: 0, w: 0}
        tangentMode: 0
      - serializedVersion: 2
        time: 0.5
        value: {x: -0.092670865, y: 0.22040766, z: 0.393951, w: 0.8874881}
        inSlope: {x: 0, y: 0, z: 0, w: 0}
        outSlope: {x: 0, y: 0, z: 0, w: 0}
        tangentMode: 0
      m_PreInfinity: 2
      m_PostInfinity: 2
      m_RotationOrder: 4
    path: Bone072/Bone067/Bone059/Bone070
  - curve:
      serializedVersion: 2
      m_Curve:
      - serializedVersion: 2
        time: 0
        value: {x: -0.028961299, y: -0.45340756, z: 0.074338265, w: 0.88772553}
        inSlope: {x: 0, y: 0, z: 0, w: 0}
        outSlope: {x: 0, y: 0, z: 0, w: 0}
        tangentMode: 0
      - serializedVersion: 2
        time: 0.5
        value: {x: -0.028961299, y: -0.45340756, z: 0.074338265, w: 0.88772553}
        inSlope: {x: 0, y: 0, z: 0, w: 0}
        outSlope: {x: 0, y: 0, z: 0, w: 0}
        tangentMode: 0
      m_PreInfinity: 2
      m_PostInfinity: 2
      m_RotationOrder: 4
    path: Bone072/Bone067/Bone059/Bone070/Bone061
  - curve:
      serializedVersion: 2
      m_Curve:
      - serializedVersion: 2
        time: 0
        value: {x: 0.014318313, y: 0.8461237, z: 0.021725565, w: 0.53235114}
        inSlope: {x: 0, y: 0, z: 0, w: 0}
        outSlope: {x: 0, y: 0, z: 0, w: 0}
        tangentMode: 0
      - serializedVersion: 2
        time: 0.5
        value: {x: 0.014318313, y: 0.8461237, z: 0.021725565, w: 0.53235114}
        inSlope: {x: 0, y: 0, z: 0, w: 0}
        outSlope: {x: 0, y: 0, z: 0, w: 0}
        tangentMode: 0
      m_PreInfinity: 2
      m_PostInfinity: 2
      m_RotationOrder: 4
    path: Bone072/Bone067/Bone059/Bone070/Bone061/Bone071
  - curve:
      serializedVersion: 2
      m_Curve:
      - serializedVersion: 2
        time: 0
        value: {x: -0.043619253, y: 0.0000005321253, z: 0.00000002323302, w: 0.99904823}
        inSlope: {x: -0.2898044, y: -0.000000007486278, z: 0.00000015435907, w: -0.014056562}
        outSlope: {x: -0.2898044, y: -0.000000007486278, z: 0.00000015435907, w: -0.014056562}
        tangentMode: 0
      - serializedVersion: 2
        time: 0.06666667
        value: {x: -0.07816015, y: 0.00000053100285, z: 0.000000041630614, w: 0.99694085}
        inSlope: {x: -0.88220984, y: -0.000000039005382, z: 0.0000004698934, w: -0.07322966}
        outSlope: {x: -0.88220984, y: -0.000000039005382, z: 0.0000004698934, w: -0.07322966}
        tangentMode: 0
      - serializedVersion: 2
        time: 0.20000002
        value: {x: -0.20698735, y: 0.0000005210973, z: 0.00000011024814, w: 0.9783436}
        inSlope: {x: -0.50864077, y: -0.000000055160555, z: 0.00000027091846, w: -0.10356274}
        outSlope: {x: -0.50864077, y: -0.000000055160555, z: 0.00000027091846, w: -0.10356274}
        tangentMode: 0
      - serializedVersion: 2
        time: 0.26666668
        value: {x: -0.18953453, y: 0.00000052297776, z: 0.00000010095219, w: 0.98187405}
        inSlope: {x: 1.2406447, y: 0.000000117618995, z: -0.00000066080736, w: 0.2208263}
        outSlope: {x: 1.2406447, y: 0.000000117618995, z: -0.00000066080736, w: 0.2208263}
        tangentMode: 0
      - serializedVersion: 2
        time: 0.33333334
        value: {x: -0.08715561, y: 0.0000005306054, z: 0.000000046421885, w: 0.9961947}
        inSlope: {x: 1.0611502, y: 0.000000055898116, z: -0.00000056520287, w: 0.10494859}
        outSlope: {x: 1.0611502, y: 0.000000055898116, z: -0.00000056520287, w: 0.10494859}
        tangentMode: 0
      - serializedVersion: 2
        time: 0.5
        value: {x: -0.043619253, y: 0.0000005321253, z: 0.00000002323302, w: 0.99904823}
        inSlope: {x: 0, y: 0, z: 0, w: 0}
        outSlope: {x: 0, y: 0, z: 0, w: 0}
        tangentMode: 0
      m_PreInfinity: 2
      m_PostInfinity: 2
      m_RotationOrder: 4
    path: Bone072/Bone067/Bone062
  - curve:
      serializedVersion: 2
      m_Curve:
      - serializedVersion: 2
        time: 0
        value: {x: 7.256879e-18, y: -1.9326236e-24, z: -0.0000002663161, w: 1}
        inSlope: {x: 0, y: 0, z: 0, w: 0}
        outSlope: {x: 0, y: 0, z: 0, w: 0}
        tangentMode: 0
      - serializedVersion: 2
        time: 0.5
        value: {x: 7.256879e-18, y: -1.9326236e-24, z: -0.0000002663161, w: 1}
        inSlope: {x: 0, y: 0, z: 0, w: 0}
        outSlope: {x: 0, y: 0, z: 0, w: 0}
        tangentMode: 0
      m_PreInfinity: 2
      m_PostInfinity: 2
      m_RotationOrder: 4
    path: Bone072/Bone067/Bone062/Bone060
  - curve:
      serializedVersion: 2
      m_Curve:
      - serializedVersion: 2
        time: 0
        value: {x: 0.998835, y: 0.006783224, z: -0.021513252, w: -0.042658072}
        inSlope: {x: -0.0038069484, y: -0.052261833, z: 0.13566792, w: -0.14897971}
        outSlope: {x: -0.0038069484, y: -0.052261833, z: 0.13566792, w: -0.14897971}
        tangentMode: 0
      - serializedVersion: 2
        time: 0.13333334
        value: {x: 0.99492013, y: -0.009839583, z: 0.028821584, w: -0.09595005}
        inSlope: {x: -0.06617368, y: -0.14104201, z: 0.5162562, w: -0.5257026}
        outSlope: {x: -0.06617368, y: -0.14104201, z: 0.5162562, w: -0.5257026}
        tangentMode: 0
      - serializedVersion: 2
        time: 0.20000002
        value: {x: 0.9904015, y: -0.016720792, z: 0.057568923, w: -0.12454375}
        inSlope: {x: -0.044995833, y: -0.054816697, z: 0.2540804, w: -0.2485646}
        outSlope: {x: -0.044995833, y: -0.054816697, z: 0.2540804, w: -0.2485646}
        tangentMode: 0
      - serializedVersion: 2
        time: 0.26666668
        value: {x: 0.9931305, y: -0.013136781, z: 0.044849522, w: -0.10727435}
        inSlope: {x: 0.12430699, y: 0.23371154, z: -0.79853857, w: 0.9514985}
        outSlope: {x: 0.12430699, y: 0.23371154, z: -0.79853857, w: 0.9514985}
        tangentMode: 0
      - serializedVersion: 2
        time: 0.3
        value: {x: 0.9977953, y: -0.0021003375, z: 0.00907893, w: -0.06570968}
        inSlope: {x: 0.08556784, y: 0.29879606, z: -0.9954416, w: 0.96924216}
        outSlope: {x: 0.08556784, y: 0.29879606, z: -0.9954416, w: 0.96924216}
        tangentMode: 0
      - serializedVersion: 2
        time: 0.40000004
        value: {x: 0.9973394, y: 0.008885237, z: -0.05839912, w: -0.042716444}
        inSlope: {x: -0.018694988, y: 0.0015635986, z: -0.34488735, w: -0.0038125347}
        outSlope: {x: -0.018694988, y: 0.0015635986, z: -0.34488735, w: -0.0038125347}
        tangentMode: 0
      - serializedVersion: 2
        time: 0.43333337
        value: {x: 0.99692374, y: 0.008720488, z: -0.06505765, w: -0.042830456}
        inSlope: {x: 0.0116345305, y: -0.016808784, z: 0.2265499, w: -0.001204703}
        outSlope: {x: 0.0116345305, y: -0.016808784, z: 0.2265499, w: -0.001204703}
        tangentMode: 0
      - serializedVersion: 2
        time: 0.5
        value: {x: 0.998835, y: 0.006783224, z: -0.021513252, w: -0.042658072}
        inSlope: {x: 0.021598956, y: -0.02944286, z: 0.6534769, w: 0.0041605574}
        outSlope: {x: 0.021598956, y: -0.02944286, z: 0.6534769, w: 0.0041605574}
        tangentMode: 0
      m_PreInfinity: 2
      m_PostInfinity: 2
      m_RotationOrder: 4
    path: Bone072/Bone067/Bone062/Bone060/Bone058
  - curve:
      serializedVersion: 2
      m_Curve:
      - serializedVersion: 2
        time: 0
        value: {x: -0.0038091, y: 0.003260013, z: 0.75974, w: 0.65020764}
        inSlope: {x: 0, y: 0, z: 0, w: 0}
        outSlope: {x: 0, y: 0, z: 0, w: 0}
        tangentMode: 0
      - serializedVersion: 2
        time: 0.20000002
        value: {x: -0.0038091, y: 0.003260013, z: 0.75974, w: 0.65020764}
        inSlope: {x: 0, y: 0, z: 0, w: 0}
        outSlope: {x: 0, y: 0, z: 0, w: 0}
        tangentMode: 0
      - serializedVersion: 2
        time: 0.23333335
        value: {x: -0.0038091, y: 0.003260013, z: 0.75974, w: 0.65020764}
        inSlope: {x: 0.43904185, y: -0.5179171, z: -0.00033527616, w: -0.018089714}
        outSlope: {x: 0.43904185, y: -0.5179171, z: -0.00033527616, w: -0.018089714}
        tangentMode: 0
      - serializedVersion: 2
        time: 0.26666668
        value: {x: 0.025460355, y: -0.031267792, z: 0.75971764, w: 0.64900166}
        inSlope: {x: 1.2554061, y: -1.472229, z: -0.07968665, w: -0.084760495}
        outSlope: {x: 1.2554061, y: -1.472229, z: -0.07968665, w: -0.084760495}
        tangentMode: 0
      - serializedVersion: 2
        time: 0.3
        value: {x: 0.07988464, y: -0.09488858, z: 0.75442755, w: 0.64455694}
        inSlope: {x: 1.2554395, y: -1.4617367, z: -0.16430588, w: -0.1201603}
        outSlope: {x: 1.2554395, y: -1.4617367, z: -0.16430588, w: -0.1201603}
        tangentMode: 0
      - serializedVersion: 2
        time: 0.33333334
        value: {x: 0.10915632, y: -0.1287169, z: 0.7487639, w: 0.640991}
        inSlope: {x: -0.00000035762787, y: 0.0000010728836, z: 0.000002682209, w: -0.000002682209}
        outSlope: {x: -0.00000035762787, y: 0.0000010728836, z: 0.000002682209, w: -0.000002682209}
        tangentMode: 0
      - serializedVersion: 2
        time: 0.36666667
        value: {x: 0.07988462, y: -0.09488851, z: 0.75442773, w: 0.64455676}
        inSlope: {x: -1.25544, y: 1.4617374, z: 0.1643058, w: 0.12016024}
        outSlope: {x: -1.25544, y: 1.4617374, z: 0.1643058, w: 0.12016024}
        tangentMode: 0
      - serializedVersion: 2
        time: 0.40000004
        value: {x: 0.025460273, y: -0.031267695, z: 0.75971764, w: 0.64900166}
        inSlope: {x: -1.2554052, y: 1.4722271, z: 0.07968389, w: 0.08476312}
        outSlope: {x: -1.2554052, y: 1.4722271, z: 0.07968389, w: 0.08476312}
        tangentMode: 0
      - serializedVersion: 2
        time: 0.43333337
        value: {x: -0.0038091, y: 0.003260013, z: 0.75974, w: 0.65020764}
        inSlope: {x: -0.43904063, y: 0.51791567, z: 0.00033527616, w: 0.018089714}
        outSlope: {x: -0.43904063, y: 0.51791567, z: 0.00033527616, w: 0.018089714}
        tangentMode: 0
      - serializedVersion: 2
        time: 0.4666667
        value: {x: -0.0038091, y: 0.003260013, z: 0.75974, w: 0.65020764}
        inSlope: {x: 0, y: 0, z: 0, w: 0}
        outSlope: {x: 0, y: 0, z: 0, w: 0}
        tangentMode: 0
      - serializedVersion: 2
        time: 0.5
        value: {x: -0.0038091, y: 0.003260013, z: 0.75974, w: 0.65020764}
        inSlope: {x: 0, y: 0, z: 0, w: 0}
        outSlope: {x: 0, y: 0, z: 0, w: 0}
        tangentMode: 0
      m_PreInfinity: 2
      m_PostInfinity: 2
      m_RotationOrder: 4
    path: Bone072/Bone067/Bone062/Bone069
  - curve:
      serializedVersion: 2
      m_Curve:
      - serializedVersion: 2
        time: 0
        value: {x: -0.0016099361, y: 0.081235826, z: 0.2956013, w: 0.9518498}
        inSlope: {x: -0.63174474, y: 0.10247379, z: -0.4772034, w: 0.1269418}
        outSlope: {x: -0.63174474, y: 0.10247379, z: -0.4772034, w: 0.1269418}
        tangentMode: 0
      - serializedVersion: 2
        time: 0.033333335
        value: {x: -0.022668095, y: 0.08465162, z: 0.27969453, w: 0.9560812}
        inSlope: {x: -1.1168203, y: 0.23494115, z: -0.83939815, w: 0.16746998}
        outSlope: {x: -1.1168203, y: 0.23494115, z: -0.83939815, w: 0.16746998}
        tangentMode: 0
      - serializedVersion: 2
        time: 0.10000001
        value: {x: -0.14606102, y: 0.121212505, z: 0.18800347, w: 0.9636537}
        inSlope: {x: -2.1116447, y: 0.89599437, z: -1.5347003, w: -0.13937207}
        outSlope: {x: -2.1116447, y: 0.89599437, z: -1.5347003, w: -0.13937207}
        tangentMode: 0
      - serializedVersion: 2
        time: 0.16666667
        value: {x: -0.27544254, y: 0.19609323, z: 0.09722354, w: 0.93606967}
        inSlope: {x: -1.4550118, y: 1.0763129, z: -0.9746337, w: -0.524539}
        outSlope: {x: -1.4550118, y: 1.0763129, z: -0.9746337, w: -0.524539}
        tangentMode: 0
      - serializedVersion: 2
        time: 0.20000002
        value: {x: -0.31384176, y: 0.22838573, z: 0.072352484, w: 0.91875374}
        inSlope: {x: -0.78295267, y: 0.68187904, z: -0.5014025, w: -0.37345907}
        outSlope: {x: -0.78295267, y: 0.68187904, z: -0.5014025, w: -0.37345907}
        tangentMode: 0
      - serializedVersion: 2
        time: 0.23333335
        value: {x: -0.3276394, y: 0.24155185, z: 0.0637967, w: 0.9111724}
        inSlope: {x: 0.0026254356, y: -1.482995, z: 0.5155204, w: 0.23746583}
        outSlope: {x: 0.0026254356, y: -1.482995, z: 0.5155204, w: 0.23746583}
        tangentMode: 0
      - serializedVersion: 2
        time: 0.26666668
        value: {x: -0.31366673, y: 0.1295194, z: 0.10672051, w: 0.9345848}
        inSlope: {x: 1.5879782, y: -4.647345, z: 2.202272, w: 0.5768601}
        outSlope: {x: 1.5879782, y: -4.647345, z: 2.202272, w: 0.5768601}
        tangentMode: 0
      - serializedVersion: 2
        time: 0.3
        value: {x: -0.22177419, y: -0.06827113, z: 0.21061482, w: 0.9496297}
        inSlope: {x: 2.9776478, y: -4.239556, z: 2.6215281, w: 0.08488029}
        outSlope: {x: 2.9776478, y: -4.239556, z: 2.6215281, w: 0.08488029}
        tangentMode: 0
      - serializedVersion: 2
        time: 0.33333334
        value: {x: -0.1151569, y: -0.15311763, z: 0.28148904, w: 0.9402435}
        inSlope: {x: 2.2414591, y: -0.56636584, z: 1.2112595, w: -0.025026806}
        outSlope: {x: 2.2414591, y: -0.56636584, z: 1.2112595, w: -0.025026806}
        tangentMode: 0
      - serializedVersion: 2
        time: 0.36666667
        value: {x: -0.072343595, y: -0.10602885, z: 0.29136544, w: 0.9479613}
        inSlope: {x: 1.0672091, y: 1.9071069, z: 0.21941002, w: 0.20310396}
        outSlope: {x: 1.0672091, y: 1.9071069, z: 0.21941002, w: 0.20310396}
        tangentMode: 0
      - serializedVersion: 2
        time: 0.40000004
        value: {x: -0.044009604, y: -0.025977105, z: 0.29611638, w: 0.95378375}
        inSlope: {x: 0.77384377, y: 2.2223647, z: 0.04910627, w: 0.09738915}
        outSlope: {x: 0.77384377, y: 2.2223647, z: 0.04910627, w: 0.09738915}
        tangentMode: 0
      - serializedVersion: 2
        time: 0.43333337
        value: {x: -0.02075399, y: 0.04212886, z: 0.2946392, w: 0.9544539}
        inSlope: {x: 0.57985973, y: 1.4910313, z: -0.024074616, w: -0.014635027}
        outSlope: {x: 0.57985973, y: 1.4910313, z: -0.024074616, w: -0.014635027}
        tangentMode: 0
      - serializedVersion: 2
        time: 0.5
        value: {x: -0.0016099361, y: 0.081235826, z: 0.2956013, w: 0.9518498}
        inSlope: {x: 0.112270735, y: 0.2343256, z: 0.03269705, w: -0.028747944}
        outSlope: {x: 0.112270735, y: 0.2343256, z: 0.03269705, w: -0.028747944}
        tangentMode: 0
      m_PreInfinity: 2
      m_PostInfinity: 2
      m_RotationOrder: 4
    path: Bone072/Bone067/Bone062/Bone069/Bone074
  - curve:
      serializedVersion: 2
      m_Curve:
      - serializedVersion: 2
        time: 0
        value: {x: 0.058761187, y: 0.5715627, z: 0.22987811, w: 0.78550583}
        inSlope: {x: 0, y: 0, z: 0, w: 0}
        outSlope: {x: 0, y: 0, z: 0, w: 0}
        tangentMode: 0
      - serializedVersion: 2
        time: 0.5
        value: {x: 0.058761187, y: 0.5715627, z: 0.22987811, w: 0.78550583}
        inSlope: {x: 0, y: 0, z: 0, w: 0}
        outSlope: {x: 0, y: 0, z: 0, w: 0}
        tangentMode: 0
      m_PreInfinity: 2
      m_PostInfinity: 2
      m_RotationOrder: 4
    path: Bone072/Bone067/Bone062/Bone069/Bone074/Bone075
  - curve:
      serializedVersion: 2
      m_Curve:
      - serializedVersion: 2
        time: 0
        value: {x: 0.7815768, y: 0.6220908, z: 0.040237322, w: 0.02284266}
        inSlope: {x: -0.09140252, y: 0.11442839, z: -0.077169046, w: 0.11695297}
        outSlope: {x: -0.09140252, y: 0.11442839, z: -0.077169046, w: 0.11695297}
        tangentMode: 0
      - serializedVersion: 2
        time: 0.13333334
        value: {x: 0.7457578, y: 0.6627162, z: 0.014149791, w: 0.06672567}
        inSlope: {x: -0.3879771, y: 0.39705548, z: -0.24073109, w: 0.45526892}
        outSlope: {x: -0.3879771, y: 0.39705548, z: -0.24073109, w: 0.45526892}
        tangentMode: 0
      - serializedVersion: 2
        time: 0.20000002
        value: {x: 0.7234602, y: 0.68417346, z: 0.0016203212, w: 0.09224647}
        inSlope: {x: -0.2013936, y: 0.18560345, z: -0.10537785, w: 0.22660515}
        outSlope: {x: -0.2013936, y: 0.18560345, z: -0.10537785, w: 0.22660515}
        tangentMode: 0
      - serializedVersion: 2
        time: 0.23333335
        value: {x: 0.7196525, y: 0.6875973, z: -0.00029151532, w: 0.09649024}
        inSlope: {x: 0.237878, y: -0.20437899, z: 0.31885827, w: -0.52862144}
        outSlope: {x: 0.237878, y: -0.20437899, z: 0.31885827, w: -0.52862144}
        tangentMode: 0
      - serializedVersion: 2
        time: 0.26666668
        value: {x: 0.7393187, y: 0.6705482, z: 0.022877539, w: 0.057005048}
        inSlope: {x: 0.73236024, y: -0.7874824, z: 1.1346102, w: -1.7534182}
        outSlope: {x: 0.73236024, y: -0.7874824, z: 1.1346102, w: -1.7534182}
        tangentMode: 0
      - serializedVersion: 2
        time: 0.3
        value: {x: 0.7684765, y: 0.63509846, z: 0.07534916, w: -0.020404298}
        inSlope: {x: 0.5783013, y: -0.8854768, z: 1.4732201, w: -2.045611}
        outSlope: {x: 0.5783013, y: -0.8854768, z: 1.4732201, w: -2.045611}
        tangentMode: 0
      - serializedVersion: 2
        time: 0.33333334
        value: {x: 0.77787215, y: 0.6115164, z: 0.1210922, w: -0.079369016}
        inSlope: {x: 0.099913195, y: -0.41490826, z: 0.9658724, w: -1.2421938}
        outSlope: {x: 0.099913195, y: -0.41490826, z: 0.9658724, w: -1.2421938}
        tangentMode: 0
      - serializedVersion: 2
        time: 0.40000004
        value: {x: 0.77386534, y: 0.60587984, z: 0.14664902, w: -0.11196464}
        inSlope: {x: -0.022020025, y: -0.026776474, z: 0.11865324, w: -0.15009922}
        outSlope: {x: -0.022020025, y: -0.026776474, z: 0.11865324, w: -0.15009922}
        tangentMode: 0
      - serializedVersion: 2
        time: 0.43333337
        value: {x: 0.77366936, y: 0.6056528, z: 0.14765087, w: -0.113223836}
        inSlope: {x: 0.11765779, y: 0.13441713, z: -0.7916326, w: 0.99387324}
        outSlope: {x: 0.11765779, y: 0.13441713, z: -0.7916326, w: 0.99387324}
        tangentMode: 0
      - serializedVersion: 2
        time: 0.4666667
        value: {x: 0.7817092, y: 0.614841, z: 0.093873516, w: -0.04570644}
        inSlope: {x: 0.11861176, y: 0.24657023, z: -1.611204, w: 2.0409985}
        outSlope: {x: 0.11861176, y: 0.24657023, z: -1.611204, w: 2.0409985}
        tangentMode: 0
      - serializedVersion: 2
        time: 0.5
        value: {x: 0.7815768, y: 0.6220908, z: 0.040237322, w: 0.02284266}
        inSlope: {x: -0.003971461, y: 0.21749517, z: -1.6090873, w: 2.056475}
        outSlope: {x: -0.003971461, y: 0.21749517, z: -1.6090873, w: 2.056475}
        tangentMode: 0
      m_PreInfinity: 2
      m_PostInfinity: 2
      m_RotationOrder: 4
    path: Bone072/Bone067/Bone062/Bone073
  - curve:
      serializedVersion: 2
      m_Curve:
      - serializedVersion: 2
        time: 0
        value: {x: -0.098282084, y: -0.022750864, z: 0.34568825, w: 0.93291086}
        inSlope: {x: -0.5871545, y: -0.20607808, z: -0.60915285, w: 0.14491616}
        outSlope: {x: -0.5871545, y: -0.20607808, z: -0.60915285, w: 0.14491616}
        tangentMode: 0
      - serializedVersion: 2
        time: 0.033333335
        value: {x: -0.1178539, y: -0.029620133, z: 0.32538316, w: 0.9377414}
        inSlope: {x: -1.0696502, y: -0.30433172, z: -1.1423634, w: 0.21078587}
        outSlope: {x: -1.0696502, y: -0.30433172, z: -1.1423634, w: 0.21078587}
        tangentMode: 0
      - serializedVersion: 2
        time: 0.10000001
        value: {x: -0.24245627, y: -0.05039323, z: 0.18635723, w: 0.950761}
        inSlope: {x: -2.2976503, y: 0.022588357, z: -2.7412379, w: -0.08081767}
        outSlope: {x: -2.2976503, y: 0.022588357, z: -2.7412379, w: -0.08081767}
        tangentMode: 0
      - serializedVersion: 2
        time: 0.13333334
        value: {x: -0.3227688, y: -0.041533757, z: 0.08678149, w: 0.9415754}
        inSlope: {x: -2.2846804, y: 0.55431235, z: -3.0397112, w: -0.48334575}
        outSlope: {x: -2.2846804, y: 0.55431235, z: -3.0397112, w: -0.48334575}
        tangentMode: 0
      - serializedVersion: 2
        time: 0.20000002
        value: {x: -0.44361538, y: 0.028081484, z: -0.111242674, w: 0.888843}
        inSlope: {x: -0.948444, y: 1.2549491, z: -2.6160908, w: -0.79685915}
        outSlope: {x: -0.948444, y: 1.2549491, z: -2.6160908, w: -0.79685915}
        tangentMode: 0
      - serializedVersion: 2
        time: 0.23333335
        value: {x: -0.45799792, y: 0.07022421, z: -0.19069625, w: 0.865414}
        inSlope: {x: 1.4886403, y: 2.2393055, z: -2.1039152, w: -0.028281212}
        outSlope: {x: 1.4886403, y: 2.2393055, z: -2.1039152, w: -0.028281212}
        tangentMode: 0
      - serializedVersion: 2
        time: 0.26666668
        value: {x: -0.3443727, y: 0.1773685, z: -0.25150368, w: 0.8869576}
        inSlope: {x: 5.3113036, y: 3.6012049, z: -2.020031, w: 0.32617542}
        outSlope: {x: 5.3113036, y: 3.6012049, z: -2.020031, w: 0.32617542}
        tangentMode: 0
      - serializedVersion: 2
        time: 0.3
        value: {x: -0.10391104, y: 0.31030452, z: -0.32536498, w: 0.88715905}
        inSlope: {x: 5.661579, y: 2.7702305, z: -1.7786744, w: -0.48076364}
        outSlope: {x: 5.661579, y: 2.7702305, z: -1.7786744, w: -0.48076364}
        tangentMode: 0
      - serializedVersion: 2
        time: 0.33333334
        value: {x: 0.033065904, y: 0.36205053, z: -0.37008196, w: 0.8549067}
        inSlope: {x: 0.8291007, y: 1.0278717, z: 0.8146093, w: -0.05422175}
        outSlope: {x: 0.8291007, y: 1.0278717, z: 0.8146093, w: -0.05422175}
        tangentMode: 0
      - serializedVersion: 2
        time: 0.36666667
        value: {x: -0.048637666, y: 0.3788293, z: -0.2710577, w: 0.88354427}
        inSlope: {x: -3.7416782, y: 0.08052546, z: 4.7329865, w: 0.71972764}
        outSlope: {x: -3.7416782, y: 0.08052546, z: 4.7329865, w: 0.71972764}
        tangentMode: 0
      - serializedVersion: 2
        time: 0.40000004
        value: {x: -0.21637945, y: 0.3674189, z: -0.054549355, w: 0.90288854}
        inSlope: {x: -4.2827516, y: -1.1058971, z: 6.1707344, w: -0.043265194}
        outSlope: {x: -4.2827516, y: -1.1058971, z: 6.1707344, w: -0.043265194}
        tangentMode: 0
      - serializedVersion: 2
        time: 0.43333337
        value: {x: -0.33415458, y: 0.30510283, z: 0.14032479, w: 0.88065994}
        inSlope: {x: -0.5669335, y: -3.7929814, z: 4.6904416, w: 0.33173564}
        outSlope: {x: -0.5669335, y: -3.7929814, z: 4.6904416, w: 0.33173564}
        tangentMode: 0
      - serializedVersion: 2
        time: 0.4666667
        value: {x: -0.254175, y: 0.11455348, z: 0.25814673, w: 0.92500424}
        inSlope: {x: 3.5380898, y: -4.9178076, z: 3.0804534, w: 0.783764}
        outSlope: {x: 3.5380898, y: -4.9178076, z: 3.0804534, w: 0.783764}
        tangentMode: 0
      - serializedVersion: 2
        time: 0.5
        value: {x: -0.098282084, y: -0.022750864, z: 0.34568825, w: 0.93291086}
        inSlope: {x: 4.676792, y: -4.1191344, z: 2.6262481, w: 0.2371987}
        outSlope: {x: 4.676792, y: -4.1191344, z: 2.6262481, w: 0.2371987}
        tangentMode: 0
      m_PreInfinity: 2
      m_PostInfinity: 2
      m_RotationOrder: 4
    path: Bone072/Bone067/Bone062/Bone073/Bone065
  - curve:
      serializedVersion: 2
      m_Curve:
      - serializedVersion: 2
        time: 0
        value: {x: 0.073488794, y: 0.35587463, z: 0.34621796, w: 0.86491954}
        inSlope: {x: -0.2679965, y: 0.092611305, z: -0.12156039, w: 0.031471252}
        outSlope: {x: -0.2679965, y: 0.092611305, z: -0.12156039, w: 0.031471252}
        tangentMode: 0
      - serializedVersion: 2
        time: 0.06666667
        value: {x: 0.041268248, y: 0.36684722, z: 0.33090138, w: 0.8684609}
        inSlope: {x: -0.8316939, y: 0.28357965, z: -0.4234072, w: 0.0749114}
        outSlope: {x: -0.8316939, y: 0.28357965, z: -0.4234072, w: 0.0749114}
        tangentMode: 0
      - serializedVersion: 2
        time: 0.20000002
        value: {x: -0.087672375, y: 0.41124538, z: 0.24066725, w: 0.87479717}
        inSlope: {x: -0.69597745, y: 0.16201477, z: -0.89538985, w: 0.102074146}
        outSlope: {x: -0.69597745, y: 0.16201477, z: -0.89538985, w: 0.102074146}
        tangentMode: 0
      - serializedVersion: 2
        time: 0.23333335
        value: {x: -0.10645271, y: 0.41325176, z: 0.20859502, w: 0.879988}
        inSlope: {x: -0.38741907, y: -0.75552016, z: -1.7432523, w: 0.63719904}
        outSlope: {x: -0.38741907, y: -0.75552016, z: -1.7432523, w: 0.63719904}
        tangentMode: 0
      - serializedVersion: 2
        time: 0.26666668
        value: {x: -0.11350031, y: 0.36087736, z: 0.124450445, w: 0.9172771}
        inSlope: {x: -0.53061014, y: -2.102628, z: -3.4257665, w: 1.0692949}
        outSlope: {x: -0.53061014, y: -2.102628, z: -3.4257665, w: 1.0692949}
        tangentMode: 0
      - serializedVersion: 2
        time: 0.3
        value: {x: -0.14182672, y: 0.27307656, z: -0.019789405, w: 0.95127434}
        inSlope: {x: -0.8221688, y: -1.9295913, z: -3.4058027, w: 0.5279741}
        outSlope: {x: -0.8221688, y: -1.9295913, z: -3.4058027, w: 0.5279741}
        tangentMode: 0
      - serializedVersion: 2
        time: 0.33333334
        value: {x: -0.16831157, y: 0.23223795, z: -0.10260306, w: 0.95247537}
        inSlope: {x: 0.7562592, y: -0.6489764, z: 0.6935406, w: 0.2594644}
        outSlope: {x: 0.7562592, y: -0.6489764, z: 0.6935406, w: 0.2594644}
        tangentMode: 0
      - serializedVersion: 2
        time: 0.36666667
        value: {x: -0.091409445, y: 0.22981147, z: 0.026446626, w: 0.96857196}
        inSlope: {x: 2.986279, y: 0.912925, z: 5.265994, w: -0.44633508}
        outSlope: {x: 2.986279, y: 0.912925, z: 5.265994, w: -0.44633508}
        tangentMode: 0
      - serializedVersion: 2
        time: 0.40000004
        value: {x: 0.030773807, y: 0.29309967, z: 0.24846336, w: 0.92271966}
        inSlope: {x: 2.473472, y: 1.8909466, z: 4.7965674, w: -1.5547857}
        outSlope: {x: 2.473472, y: 1.8909466, z: 4.7965674, w: -1.5547857}
        tangentMode: 0
      - serializedVersion: 2
        time: 0.43333337
        value: {x: 0.073488794, y: 0.35587463, z: 0.34621796, w: 0.86491954}
        inSlope: {x: 0.64072484, y: 0.9416244, z: 1.4663191, w: -0.8670018}
        outSlope: {x: 0.64072484, y: 0.9416244, z: 1.4663191, w: -0.8670018}
        tangentMode: 0
      - serializedVersion: 2
        time: 0.4666667
        value: {x: 0.073488794, y: 0.35587463, z: 0.34621796, w: 0.86491954}
        inSlope: {x: 0, y: 0, z: 0, w: 0}
        outSlope: {x: 0, y: 0, z: 0, w: 0}
        tangentMode: 0
      - serializedVersion: 2
        time: 0.5
        value: {x: 0.073488794, y: 0.35587463, z: 0.34621796, w: 0.86491954}
        inSlope: {x: 0, y: 0, z: 0, w: 0}
        outSlope: {x: 0, y: 0, z: 0, w: 0}
        tangentMode: 0
      m_PreInfinity: 2
      m_PostInfinity: 2
      m_RotationOrder: 4
    path: Bone072/Bone067/Bone062/Bone073/Bone065/Bone064
  - curve:
      serializedVersion: 2
      m_Curve:
      - serializedVersion: 2
        time: 0
        value: {x: 0.00000006802636, y: 0.000000025749033, z: 0.87428725, w: 0.48540887}
        inSlope: {x: 0, y: 0, z: 0, w: 0}
        outSlope: {x: 0, y: 0, z: 0, w: 0}
        tangentMode: 0
      - serializedVersion: 2
        time: 0.5
        value: {x: 0.00000006802636, y: 0.000000025749033, z: 0.87428725, w: 0.48540887}
        inSlope: {x: 0, y: 0, z: 0, w: 0}
        outSlope: {x: 0, y: 0, z: 0, w: 0}
        tangentMode: 0
      m_PreInfinity: 2
      m_PostInfinity: 2
      m_RotationOrder: 4
    path: Bone072/Bone067/Bone066
  - curve:
      serializedVersion: 2
      m_Curve:
      - serializedVersion: 2
        time: 0
        value: {x: -0.092670865, y: 0.22040766, z: 0.393951, w: 0.8874881}
        inSlope: {x: -0.080785446, y: 0.115457915, z: -0.02275139, w: -0.02740681}
        outSlope: {x: -0.080785446, y: 0.115457915, z: -0.02275139, w: -0.02740681}
        tangentMode: 0
      - serializedVersion: 2
        time: 0.16666667
        value: {x: -0.13072424, y: 0.275942, z: 0.38307104, w: 0.87179345}
        inSlope: {x: -0.23472959, y: 0.35019898, z: -0.06815269, w: -0.11493443}
        outSlope: {x: -0.23472959, y: 0.35019898, z: -0.06815269, w: -0.11493443}
        tangentMode: 0
      - serializedVersion: 2
        time: 0.26666668
        value: {x: -0.12790032, y: 0.27173012, z: 0.38389078, w: 0.8731736}
        inSlope: {x: 0.5193224, y: -0.76807743, z: 0.14987694, w: 0.23842606}
        outSlope: {x: 0.5193224, y: -0.76807743, z: 0.14987694, w: 0.23842606}
        tangentMode: 0
      - serializedVersion: 2
        time: 0.3
        value: {x: -0.10519418, y: 0.2384057, z: 0.39040947, w: 0.8829934}
        inSlope: {x: 0.5284418, y: -0.76983696, z: 0.15090333, w: 0.21471801}
        outSlope: {x: 0.5284418, y: -0.76983696, z: 0.15090333, w: 0.21471801}
        tangentMode: 0
      - serializedVersion: 2
        time: 0.40000004
        value: {x: -0.092670865, y: 0.22040766, z: 0.393951, w: 0.8874881}
        inSlope: {x: 0, y: 0, z: 0, w: 0}
        outSlope: {x: 0, y: 0, z: 0, w: 0}
        tangentMode: 0
      - serializedVersion: 2
        time: 0.5
        value: {x: -0.092670865, y: 0.22040766, z: 0.393951, w: 0.8874881}
        inSlope: {x: 0, y: 0, z: 0, w: 0}
        outSlope: {x: 0, y: 0, z: 0, w: 0}
        tangentMode: 0
      m_PreInfinity: 2
      m_PostInfinity: 2
      m_RotationOrder: 4
    path: Bone072/Bone067/Bone066/Bone076
  - curve:
      serializedVersion: 2
      m_Curve:
      - serializedVersion: 2
        time: 0
        value: {x: -0.028961299, y: -0.45340756, z: 0.074338265, w: 0.88772553}
        inSlope: {x: 0.010666977, y: -0.12927264, z: 0.0018281488, w: -0.066229105}
        outSlope: {x: 0.010666977, y: -0.12927264, z: 0.0018281488, w: -0.066229105}
        tangentMode: 0
      - serializedVersion: 2
        time: 0.16666667
        value: {x: -0.021980241, y: -0.51441395, z: 0.07337374, w: 0.8541144}
        inSlope: {x: 0.0558214, y: -0.37704074, z: -0.01786049, w: -0.22292551}
        outSlope: {x: 0.0558214, y: -0.37704074, z: -0.01786049, w: -0.22292551}
        tangentMode: 0
      - serializedVersion: 2
        time: 0.26666668
        value: {x: -0.022649944, y: -0.5098781, z: 0.07358698, w: 0.8567942}
        inSlope: {x: -0.112329274, y: 0.8335403, z: 0.029088896, w: 0.47957724}
        outSlope: {x: -0.112329274, y: 0.8335403, z: 0.029088896, w: 0.47957724}
        tangentMode: 0
      - serializedVersion: 2
        time: 0.3
        value: {x: -0.027135195, y: -0.47345746, z: 0.074460536, w: 0.8772442}
        inSlope: {x: -0.09467033, y: 0.84705824, z: 0.011269302, w: 0.46397036}
        outSlope: {x: -0.09467033, y: 0.84705824, z: 0.011269302, w: 0.46397036}
        tangentMode: 0
      - serializedVersion: 2
        time: 0.40000004
        value: {x: -0.028961299, y: -0.45340756, z: 0.074338265, w: 0.88772553}
        inSlope: {x: 0, y: 0, z: 0, w: 0}
        outSlope: {x: 0, y: 0, z: 0, w: 0}
        tangentMode: 0
      - serializedVersion: 2
        time: 0.5
        value: {x: -0.028961299, y: -0.45340756, z: 0.074338265, w: 0.88772553}
        inSlope: {x: 0, y: 0, z: 0, w: 0}
        outSlope: {x: 0, y: 0, z: 0, w: 0}
        tangentMode: 0
      m_PreInfinity: 2
      m_PostInfinity: 2
      m_RotationOrder: 4
    path: Bone072/Bone067/Bone066/Bone076/Bone068
  - curve:
      serializedVersion: 2
      m_Curve:
      - serializedVersion: 2
        time: 0
        value: {x: 0.014318313, y: 0.8461237, z: 0.021725565, w: 0.53235114}
        inSlope: {x: 0, y: 0, z: 0, w: 0}
        outSlope: {x: 0, y: 0, z: 0, w: 0}
        tangentMode: 0
      - serializedVersion: 2
        time: 0.5
        value: {x: 0.014318313, y: 0.8461237, z: 0.021725565, w: 0.53235114}
        inSlope: {x: 0, y: 0, z: 0, w: 0}
        outSlope: {x: 0, y: 0, z: 0, w: 0}
        tangentMode: 0
      m_PreInfinity: 2
      m_PostInfinity: 2
      m_RotationOrder: 4
    path: Bone072/Bone067/Bone066/Bone076/Bone068/Bone063
  - curve:
      serializedVersion: 2
      m_Curve:
      - serializedVersion: 2
        time: 0
        value: {x: -0.7071068, y: 0, z: -0, w: 0.7071068}
        inSlope: {x: 0, y: 0, z: 0, w: 0}
        outSlope: {x: 0, y: 0, z: 0, w: 0}
        tangentMode: 0
      - serializedVersion: 2
        time: 0.5
        value: {x: -0.7071068, y: 0, z: -0, w: 0.7071068}
        inSlope: {x: 0, y: 0, z: 0, w: 0}
        outSlope: {x: 0, y: 0, z: 0, w: 0}
        tangentMode: 0
      m_PreInfinity: 2
      m_PostInfinity: 2
      m_RotationOrder: 4
    path: meen003
  m_CompressedRotationCurves: []
  m_EulerCurves: []
  m_PositionCurves:
  - curve:
      serializedVersion: 2
      m_Curve:
      - serializedVersion: 2
        time: 0
        value: {x: -0, y: 0, z: -4.1713733e-12}
        inSlope: {x: 0, y: 0, z: 0}
        outSlope: {x: 0, y: 0, z: 0}
        tangentMode: 0
      - serializedVersion: 2
        time: 0.5
        value: {x: -0, y: 0, z: -4.1713733e-12}
        inSlope: {x: 0, y: 0, z: 0}
        outSlope: {x: 0, y: 0, z: 0}
        tangentMode: 0
      m_PreInfinity: 2
      m_PostInfinity: 2
      m_RotationOrder: 4
    path: Bone072
  - curve:
      serializedVersion: 2
      m_Curve:
      - serializedVersion: 2
        time: 0
        value: {x: -0.021053964, y: -0.0000000050105156, z: 2.3578337e-10}
        inSlope: {x: 0, y: 0, z: 0}
        outSlope: {x: 0, y: 0, z: 0}
        tangentMode: 0
      - serializedVersion: 2
        time: 0.5
        value: {x: -0.021053964, y: -0.0000000050105156, z: 2.3578337e-10}
        inSlope: {x: 0, y: 0, z: 0}
        outSlope: {x: 0, y: 0, z: 0}
        tangentMode: 0
      m_PreInfinity: 2
      m_PostInfinity: 2
      m_RotationOrder: 4
    path: Bone072/Bone067
  - curve:
      serializedVersion: 2
      m_Curve:
      - serializedVersion: 2
        time: 0
        value: {x: -0.0067110364, y: 0.0001286862, z: 0}
        inSlope: {x: 0, y: 0, z: 0}
        outSlope: {x: 0, y: 0, z: 0}
        tangentMode: 0
      - serializedVersion: 2
        time: 0.5
        value: {x: -0.0067110364, y: 0.0001286862, z: 0}
        inSlope: {x: 0, y: 0, z: 0}
        outSlope: {x: 0, y: 0, z: 0}
        tangentMode: 0
      m_PreInfinity: 2
      m_PostInfinity: 2
      m_RotationOrder: 4
    path: Bone072/Bone067/Bone059
  - curve:
      serializedVersion: 2
      m_Curve:
      - serializedVersion: 2
        time: 0
        value: {x: -0.0093581, y: 0.0000000020489097, z: 1.5255352e-13}
        inSlope: {x: 0, y: 0, z: 0}
        outSlope: {x: 0, y: 0, z: 0}
        tangentMode: 0
      - serializedVersion: 2
        time: 0.5
        value: {x: -0.0093581, y: 0.0000000020489097, z: 1.5255352e-13}
        inSlope: {x: 0, y: 0, z: 0}
        outSlope: {x: 0, y: 0, z: 0}
        tangentMode: 0
      m_PreInfinity: 2
      m_PostInfinity: 2
      m_RotationOrder: 4
    path: Bone072/Bone067/Bone059/Bone070
  - curve:
      serializedVersion: 2
      m_Curve:
      - serializedVersion: 2
        time: 0
        value: {x: -0.009528894, y: -0.00000036200547, z: 1.8764651e-11}
        inSlope: {x: 0, y: 0, z: 0}
        outSlope: {x: 0, y: 0, z: 0}
        tangentMode: 0
      - serializedVersion: 2
        time: 0.5
        value: {x: -0.009528894, y: -0.00000036200547, z: 1.8764651e-11}
        inSlope: {x: 0, y: 0, z: 0}
        outSlope: {x: 0, y: 0, z: 0}
        tangentMode: 0
      m_PreInfinity: 2
      m_PostInfinity: 2
      m_RotationOrder: 4
    path: Bone072/Bone067/Bone059/Bone070/Bone061
  - curve:
      serializedVersion: 2
      m_Curve:
      - serializedVersion: 2
        time: 0
        value: {x: -0.014518151, y: 0.00000006854534, z: 1.4901161e-10}
        inSlope: {x: 0, y: 0, z: 0}
        outSlope: {x: 0, y: 0, z: 0}
        tangentMode: 0
      - serializedVersion: 2
        time: 0.5
        value: {x: -0.014518151, y: 0.00000006854534, z: 1.4901161e-10}
        inSlope: {x: 0, y: 0, z: 0}
        outSlope: {x: 0, y: 0, z: 0}
        tangentMode: 0
      m_PreInfinity: 2
      m_PostInfinity: 2
      m_RotationOrder: 4
    path: Bone072/Bone067/Bone059/Bone070/Bone061/Bone071
  - curve:
      serializedVersion: 2
      m_Curve:
      - serializedVersion: 2
        time: 0
        value: {x: -0.006711036, y: 3.732498e-10, z: -0.0000000023841857}
        inSlope: {x: 0, y: 0, z: 0}
        outSlope: {x: 0, y: 0, z: 0}
        tangentMode: 0
      - serializedVersion: 2
        time: 0.5
        value: {x: -0.006711036, y: 3.732498e-10, z: -0.0000000023841857}
        inSlope: {x: 0, y: 0, z: 0}
        outSlope: {x: 0, y: 0, z: 0}
        tangentMode: 0
      m_PreInfinity: 2
      m_PostInfinity: 2
      m_RotationOrder: 4
    path: Bone072/Bone067/Bone062
  - curve:
      serializedVersion: 2
      m_Curve:
      - serializedVersion: 2
        time: 0
        value: {x: -0.023557335, y: -3.971877e-11, z: 5.442757e-13}
        inSlope: {x: 0, y: 0, z: 0}
        outSlope: {x: 0, y: 0, z: 0}
        tangentMode: 0
      - serializedVersion: 2
        time: 0.5
        value: {x: -0.023557335, y: -3.971877e-11, z: 5.442757e-13}
        inSlope: {x: 0, y: 0, z: 0}
        outSlope: {x: 0, y: 0, z: 0}
        tangentMode: 0
      m_PreInfinity: 2
      m_PostInfinity: 2
      m_RotationOrder: 4
    path: Bone072/Bone067/Bone062/Bone060
  - curve:
      serializedVersion: 2
      m_Curve:
      - serializedVersion: 2
        time: 0
        value: {x: -0.004921532, y: -0.000000001117587, z: 5.701733e-10}
        inSlope: {x: 0, y: 0, z: 0}
        outSlope: {x: 0, y: 0, z: 0}
        tangentMode: 0
      - serializedVersion: 2
        time: 0.5
        value: {x: -0.004921532, y: -0.000000001117587, z: 5.701733e-10}
        inSlope: {x: 0, y: 0, z: 0}
        outSlope: {x: 0, y: 0, z: 0}
        tangentMode: 0
      m_PreInfinity: 2
      m_PostInfinity: 2
      m_RotationOrder: 4
    path: Bone072/Bone067/Bone062/Bone060/Bone058
  - curve:
      serializedVersion: 2
      m_Curve:
      - serializedVersion: 2
        time: 0
        value: {x: -0.023557333, y: 0.0000000024121103, z: 0.0000000027312566}
        inSlope: {x: 0, y: 0, z: 0}
        outSlope: {x: 0, y: 0, z: 0}
        tangentMode: 0
      - serializedVersion: 2
        time: 0.5
        value: {x: -0.023557333, y: 0.0000000024121103, z: 0.0000000027312566}
        inSlope: {x: 0, y: 0, z: 0}
        outSlope: {x: 0, y: 0, z: 0}
        tangentMode: 0
      m_PreInfinity: 2
      m_PostInfinity: 2
      m_RotationOrder: 4
    path: Bone072/Bone067/Bone062/Bone069
  - curve:
      serializedVersion: 2
      m_Curve:
      - serializedVersion: 2
        time: 0
        value: {x: -0.014545313, y: -2.3783286e-11, z: 9.2764064e-17}
        inSlope: {x: 0, y: 0, z: 0}
        outSlope: {x: 0, y: 0, z: 0}
        tangentMode: 0
      - serializedVersion: 2
        time: 0.5
        value: {x: -0.014545313, y: -2.3783286e-11, z: 9.2764064e-17}
        inSlope: {x: 0, y: 0, z: 0}
        outSlope: {x: 0, y: 0, z: 0}
        tangentMode: 0
      m_PreInfinity: 2
      m_PostInfinity: 2
      m_RotationOrder: 4
    path: Bone072/Bone067/Bone062/Bone069/Bone074
  - curve:
      serializedVersion: 2
      m_Curve:
      - serializedVersion: 2
        time: 0
        value: {x: -0.0101224575, y: -2.8012436e-11, z: 3.137934e-12}
        inSlope: {x: 0, y: 0, z: 0}
        outSlope: {x: 0, y: 0, z: 0}
        tangentMode: 0
      - serializedVersion: 2
        time: 0.5
        value: {x: -0.0101224575, y: -2.8012436e-11, z: 3.137934e-12}
        inSlope: {x: 0, y: 0, z: 0}
        outSlope: {x: 0, y: 0, z: 0}
        tangentMode: 0
      m_PreInfinity: 2
      m_PostInfinity: 2
      m_RotationOrder: 4
    path: Bone072/Bone067/Bone062/Bone069/Bone074/Bone075
  - curve:
      serializedVersion: 2
      m_Curve:
      - serializedVersion: 2
        time: 0
        value: {x: -0.023557333, y: -0.000005602053, z: -0.000000014305114}
        inSlope: {x: 0, y: 0, z: 0}
        outSlope: {x: 0, y: 0, z: 0}
        tangentMode: 0
      - serializedVersion: 2
        time: 0.5
        value: {x: -0.023557333, y: -0.000005602053, z: -0.000000014305114}
        inSlope: {x: 0, y: 0, z: 0}
        outSlope: {x: 0, y: 0, z: 0}
        tangentMode: 0
      m_PreInfinity: 2
      m_PostInfinity: 2
      m_RotationOrder: 4
    path: Bone072/Bone067/Bone062/Bone073
  - curve:
      serializedVersion: 2
      m_Curve:
      - serializedVersion: 2
        time: 0
        value: {x: -0.014545313, y: -2.3783286e-11, z: 9.2764064e-17}
        inSlope: {x: 0, y: 0, z: 0}
        outSlope: {x: 0, y: 0, z: 0}
        tangentMode: 0
      - serializedVersion: 2
        time: 0.5
        value: {x: -0.014545313, y: -2.3783286e-11, z: 9.2764064e-17}
        inSlope: {x: 0, y: 0, z: 0}
        outSlope: {x: 0, y: 0, z: 0}
        tangentMode: 0
      m_PreInfinity: 2
      m_PostInfinity: 2
      m_RotationOrder: 4
    path: Bone072/Bone067/Bone062/Bone073/Bone065
  - curve:
      serializedVersion: 2
      m_Curve:
      - serializedVersion: 2
        time: 0
        value: {x: -0.0101224575, y: -2.8012436e-11, z: 3.137934e-12}
        inSlope: {x: 0, y: 0, z: 0}
        outSlope: {x: 0, y: 0, z: 0}
        tangentMode: 0
      - serializedVersion: 2
        time: 0.5
        value: {x: -0.0101224575, y: -2.8012436e-11, z: 3.137934e-12}
        inSlope: {x: 0, y: 0, z: 0}
        outSlope: {x: 0, y: 0, z: 0}
        tangentMode: 0
      m_PreInfinity: 2
      m_PostInfinity: 2
      m_RotationOrder: 4
    path: Bone072/Bone067/Bone062/Bone073/Bone065/Bone064
  - curve:
      serializedVersion: 2
      m_Curve:
      - serializedVersion: 2
        time: 0
        value: {x: -0.0067110364, y: 0.000000003948371, z: -3.196566e-14}
        inSlope: {x: 0, y: 0, z: 0}
        outSlope: {x: 0, y: 0, z: 0}
        tangentMode: 0
      - serializedVersion: 2
        time: 0.5
        value: {x: -0.0067110364, y: 0.000000003948371, z: -3.196566e-14}
        inSlope: {x: 0, y: 0, z: 0}
        outSlope: {x: 0, y: 0, z: 0}
        tangentMode: 0
      m_PreInfinity: 2
      m_PostInfinity: 2
      m_RotationOrder: 4
    path: Bone072/Bone067/Bone066
  - curve:
      serializedVersion: 2
      m_Curve:
      - serializedVersion: 2
        time: 0
        value: {x: -0.0093581, y: 0.0000000020489097, z: 1.5255352e-13}
        inSlope: {x: 0, y: 0, z: 0}
        outSlope: {x: 0, y: 0, z: 0}
        tangentMode: 0
      - serializedVersion: 2
        time: 0.5
        value: {x: -0.0093581, y: 0.0000000020489097, z: 1.5255352e-13}
        inSlope: {x: 0, y: 0, z: 0}
        outSlope: {x: 0, y: 0, z: 0}
        tangentMode: 0
      m_PreInfinity: 2
      m_PostInfinity: 2
      m_RotationOrder: 4
    path: Bone072/Bone067/Bone066/Bone076
  - curve:
      serializedVersion: 2
      m_Curve:
      - serializedVersion: 2
        time: 0
        value: {x: -0.009528894, y: -0.00000036200547, z: 1.8764651e-11}
        inSlope: {x: 0, y: 0, z: 0}
        outSlope: {x: 0, y: 0, z: 0}
        tangentMode: 0
      - serializedVersion: 2
        time: 0.5
        value: {x: -0.009528894, y: -0.00000036200547, z: 1.8764651e-11}
        inSlope: {x: 0, y: 0, z: 0}
        outSlope: {x: 0, y: 0, z: 0}
        tangentMode: 0
      m_PreInfinity: 2
      m_PostInfinity: 2
      m_RotationOrder: 4
    path: Bone072/Bone067/Bone066/Bone076/Bone068
  - curve:
      serializedVersion: 2
      m_Curve:
      - serializedVersion: 2
        time: 0
        value: {x: -0.014518151, y: 0.00000006854534, z: 1.4901161e-10}
        inSlope: {x: 0, y: 0, z: 0}
        outSlope: {x: 0, y: 0, z: 0}
        tangentMode: 0
      - serializedVersion: 2
        time: 0.5
        value: {x: -0.014518151, y: 0.00000006854534, z: 1.4901161e-10}
        inSlope: {x: 0, y: 0, z: 0}
        outSlope: {x: 0, y: 0, z: 0}
        tangentMode: 0
      m_PreInfinity: 2
      m_PostInfinity: 2
      m_RotationOrder: 4
    path: Bone072/Bone067/Bone066/Bone076/Bone068/Bone063
  - curve:
      serializedVersion: 2
      m_Curve:
      - serializedVersion: 2
        time: 0
        value: {x: -0.009567947, y: 0, z: 0}
        inSlope: {x: 0, y: 0, z: 0}
        outSlope: {x: 0, y: 0, z: 0}
        tangentMode: 0
      - serializedVersion: 2
        time: 0.5
        value: {x: -0.009567947, y: 0, z: 0}
        inSlope: {x: 0, y: 0, z: 0}
        outSlope: {x: 0, y: 0, z: 0}
        tangentMode: 0
      m_PreInfinity: 2
      m_PostInfinity: 2
      m_RotationOrder: 4
    path: meen003
  m_ScaleCurves:
  - curve:
      serializedVersion: 2
      m_Curve:
      - serializedVersion: 2
        time: 0
        value: {x: 1, y: 1, z: 1}
        inSlope: {x: 0, y: 0, z: 0}
        outSlope: {x: 0, y: 0, z: 0}
        tangentMode: 0
      - serializedVersion: 2
        time: 0.5
        value: {x: 1, y: 1, z: 1}
        inSlope: {x: 0, y: 0, z: 0}
        outSlope: {x: 0, y: 0, z: 0}
        tangentMode: 0
      m_PreInfinity: 2
      m_PostInfinity: 2
      m_RotationOrder: 4
    path: Bone072
  - curve:
      serializedVersion: 2
      m_Curve:
      - serializedVersion: 2
        time: 0
        value: {x: 1, y: 1, z: 1}
        inSlope: {x: 0, y: 0, z: 0}
        outSlope: {x: 0, y: 0, z: 0}
        tangentMode: 0
      - serializedVersion: 2
        time: 0.5
        value: {x: 1, y: 1, z: 1}
        inSlope: {x: 0, y: 0, z: 0}
        outSlope: {x: 0, y: 0, z: 0}
        tangentMode: 0
      m_PreInfinity: 2
      m_PostInfinity: 2
      m_RotationOrder: 4
    path: Bone072/Bone067
  - curve:
      serializedVersion: 2
      m_Curve:
      - serializedVersion: 2
        time: 0
        value: {x: -1, y: -1, z: -1}
        inSlope: {x: 0, y: 0, z: 0}
        outSlope: {x: 0, y: 0, z: 0}
        tangentMode: 0
      - serializedVersion: 2
        time: 0.5
        value: {x: -1, y: -1, z: -1}
        inSlope: {x: 0, y: 0, z: 0}
        outSlope: {x: 0, y: 0, z: 0}
        tangentMode: 0
      m_PreInfinity: 2
      m_PostInfinity: 2
      m_RotationOrder: 4
    path: Bone072/Bone067/Bone059
  - curve:
      serializedVersion: 2
      m_Curve:
      - serializedVersion: 2
        time: 0
        value: {x: 1, y: 1, z: 1}
        inSlope: {x: 0, y: 0, z: 0}
        outSlope: {x: 0, y: 0, z: 0}
        tangentMode: 0
      - serializedVersion: 2
        time: 0.5
        value: {x: 1, y: 1, z: 1}
        inSlope: {x: 0, y: 0, z: 0}
        outSlope: {x: 0, y: 0, z: 0}
        tangentMode: 0
      m_PreInfinity: 2
      m_PostInfinity: 2
      m_RotationOrder: 4
    path: Bone072/Bone067/Bone059/Bone070
  - curve:
      serializedVersion: 2
      m_Curve:
      - serializedVersion: 2
        time: 0
        value: {x: 1, y: 1, z: 1}
        inSlope: {x: 0, y: 0, z: 0}
        outSlope: {x: 0, y: 0, z: 0}
        tangentMode: 0
      - serializedVersion: 2
        time: 0.5
        value: {x: 1, y: 1, z: 1}
        inSlope: {x: 0, y: 0, z: 0}
        outSlope: {x: 0, y: 0, z: 0}
        tangentMode: 0
      m_PreInfinity: 2
      m_PostInfinity: 2
      m_RotationOrder: 4
    path: Bone072/Bone067/Bone059/Bone070/Bone061
  - curve:
      serializedVersion: 2
      m_Curve:
      - serializedVersion: 2
        time: 0
        value: {x: 1.0000002, y: 1.0000001, z: 0.99999994}
        inSlope: {x: 0, y: 0, z: 0}
        outSlope: {x: 0, y: 0, z: 0}
        tangentMode: 0
      - serializedVersion: 2
        time: 0.5
        value: {x: 1.0000002, y: 1.0000001, z: 0.99999994}
        inSlope: {x: 0, y: 0, z: 0}
        outSlope: {x: 0, y: 0, z: 0}
        tangentMode: 0
      m_PreInfinity: 2
      m_PostInfinity: 2
      m_RotationOrder: 4
    path: Bone072/Bone067/Bone059/Bone070/Bone061/Bone071
  - curve:
      serializedVersion: 2
      m_Curve:
      - serializedVersion: 2
        time: 0
        value: {x: 1, y: 0.99999994, z: 0.9999999}
        inSlope: {x: 0, y: 0, z: 0}
        outSlope: {x: 0, y: 0, z: 0}
        tangentMode: 0
      - serializedVersion: 2
        time: 0.5
        value: {x: 1, y: 0.99999994, z: 0.9999999}
        inSlope: {x: 0, y: 0, z: 0}
        outSlope: {x: 0, y: 0, z: 0}
        tangentMode: 0
      m_PreInfinity: 2
      m_PostInfinity: 2
      m_RotationOrder: 4
    path: Bone072/Bone067/Bone062
  - curve:
      serializedVersion: 2
      m_Curve:
      - serializedVersion: 2
        time: 0
        value: {x: 1, y: 1, z: 1}
        inSlope: {x: 0, y: 0, z: 0}
        outSlope: {x: 0, y: 0, z: 0}
        tangentMode: 0
      - serializedVersion: 2
        time: 0.5
        value: {x: 1, y: 1, z: 1}
        inSlope: {x: 0, y: 0, z: 0}
        outSlope: {x: 0, y: 0, z: 0}
        tangentMode: 0
      m_PreInfinity: 2
      m_PostInfinity: 2
      m_RotationOrder: 4
    path: Bone072/Bone067/Bone062/Bone060
  - curve:
      serializedVersion: 2
      m_Curve:
      - serializedVersion: 2
        time: 0
        value: {x: 1, y: 1, z: 1}
        inSlope: {x: 0, y: 0, z: 0}
        outSlope: {x: 0, y: 0, z: 0}
        tangentMode: 0
      - serializedVersion: 2
        time: 0.5
        value: {x: 1, y: 1, z: 1}
        inSlope: {x: 0, y: 0, z: 0}
        outSlope: {x: 0, y: 0, z: 0}
        tangentMode: 0
      m_PreInfinity: 2
      m_PostInfinity: 2
      m_RotationOrder: 4
    path: Bone072/Bone067/Bone062/Bone060/Bone058
  - curve:
      serializedVersion: 2
      m_Curve:
      - serializedVersion: 2
        time: 0
        value: {x: 0.9999998, y: 0.9999998, z: 1}
        inSlope: {x: 0, y: 0, z: 0}
        outSlope: {x: 0, y: 0, z: 0}
        tangentMode: 0
      - serializedVersion: 2
        time: 0.5
        value: {x: 0.9999998, y: 0.9999998, z: 1}
        inSlope: {x: 0, y: 0, z: 0}
        outSlope: {x: 0, y: 0, z: 0}
        tangentMode: 0
      m_PreInfinity: 2
      m_PostInfinity: 2
      m_RotationOrder: 4
    path: Bone072/Bone067/Bone062/Bone069
  - curve:
      serializedVersion: 2
      m_Curve:
      - serializedVersion: 2
        time: 0
        value: {x: 1.0000005, y: 1.0000005, z: 1}
        inSlope: {x: 0, y: 0, z: 0}
        outSlope: {x: 0, y: 0, z: 0}
        tangentMode: 0
      - serializedVersion: 2
        time: 0.5
        value: {x: 1.0000005, y: 1.0000005, z: 1}
        inSlope: {x: 0, y: 0, z: 0}
        outSlope: {x: 0, y: 0, z: 0}
        tangentMode: 0
      m_PreInfinity: 2
      m_PostInfinity: 2
      m_RotationOrder: 4
    path: Bone072/Bone067/Bone062/Bone069/Bone074
  - curve:
      serializedVersion: 2
      m_Curve:
      - serializedVersion: 2
        time: 0
        value: {x: 0.9999999, y: 0.9999999, z: 1}
        inSlope: {x: 0, y: 0, z: 0}
        outSlope: {x: 0, y: 0, z: 0}
        tangentMode: 0
      - serializedVersion: 2
        time: 0.5
        value: {x: 0.9999999, y: 0.9999999, z: 1}
        inSlope: {x: 0, y: 0, z: 0}
        outSlope: {x: 0, y: 0, z: 0}
        tangentMode: 0
      m_PreInfinity: 2
      m_PostInfinity: 2
      m_RotationOrder: 4
    path: Bone072/Bone067/Bone062/Bone069/Bone074/Bone075
  - curve:
      serializedVersion: 2
      m_Curve:
      - serializedVersion: 2
        time: 0
        value: {x: -0.9999999, y: -0.9999997, z: -0.99999994}
        inSlope: {x: 0, y: 0, z: 0}
        outSlope: {x: 0, y: 0, z: 0}
        tangentMode: 0
      - serializedVersion: 2
        time: 0.5
        value: {x: -0.9999999, y: -0.9999997, z: -0.99999994}
        inSlope: {x: 0, y: 0, z: 0}
        outSlope: {x: 0, y: 0, z: 0}
        tangentMode: 0
      m_PreInfinity: 2
      m_PostInfinity: 2
      m_RotationOrder: 4
    path: Bone072/Bone067/Bone062/Bone073
  - curve:
      serializedVersion: 2
      m_Curve:
      - serializedVersion: 2
        time: 0
        value: {x: 1.0000005, y: 1.0000005, z: 1}
        inSlope: {x: 0, y: 0, z: 0}
        outSlope: {x: 0, y: 0, z: 0}
        tangentMode: 0
      - serializedVersion: 2
        time: 0.5
        value: {x: 1.0000005, y: 1.0000005, z: 1}
        inSlope: {x: 0, y: 0, z: 0}
        outSlope: {x: 0, y: 0, z: 0}
        tangentMode: 0
      m_PreInfinity: 2
      m_PostInfinity: 2
      m_RotationOrder: 4
    path: Bone072/Bone067/Bone062/Bone073/Bone065
  - curve:
      serializedVersion: 2
      m_Curve:
      - serializedVersion: 2
        time: 0
        value: {x: 0.9999999, y: 0.9999999, z: 1}
        inSlope: {x: 0, y: 0, z: 0}
        outSlope: {x: 0, y: 0, z: 0}
        tangentMode: 0
      - serializedVersion: 2
        time: 0.5
        value: {x: 0.9999999, y: 0.9999999, z: 1}
        inSlope: {x: 0, y: 0, z: 0}
        outSlope: {x: 0, y: 0, z: 0}
        tangentMode: 0
      m_PreInfinity: 2
      m_PostInfinity: 2
      m_RotationOrder: 4
    path: Bone072/Bone067/Bone062/Bone073/Bone065/Bone064
  - curve:
      serializedVersion: 2
      m_Curve:
      - serializedVersion: 2
        time: 0
        value: {x: 1, y: 1, z: 1}
        inSlope: {x: 0, y: 0, z: 0}
        outSlope: {x: 0, y: 0, z: 0}
        tangentMode: 0
      - serializedVersion: 2
        time: 0.5
        value: {x: 1, y: 1, z: 1}
        inSlope: {x: 0, y: 0, z: 0}
        outSlope: {x: 0, y: 0, z: 0}
        tangentMode: 0
      m_PreInfinity: 2
      m_PostInfinity: 2
      m_RotationOrder: 4
    path: Bone072/Bone067/Bone066
  - curve:
      serializedVersion: 2
      m_Curve:
      - serializedVersion: 2
        time: 0
        value: {x: 1, y: 1, z: 1}
        inSlope: {x: 0, y: 0, z: 0}
        outSlope: {x: 0, y: 0, z: 0}
        tangentMode: 0
      - serializedVersion: 2
        time: 0.5
        value: {x: 1, y: 1, z: 1}
        inSlope: {x: 0, y: 0, z: 0}
        outSlope: {x: 0, y: 0, z: 0}
        tangentMode: 0
      m_PreInfinity: 2
      m_PostInfinity: 2
      m_RotationOrder: 4
    path: Bone072/Bone067/Bone066/Bone076
  - curve:
      serializedVersion: 2
      m_Curve:
      - serializedVersion: 2
        time: 0
        value: {x: 1, y: 1, z: 1}
        inSlope: {x: 0, y: 0, z: 0}
        outSlope: {x: 0, y: 0, z: 0}
        tangentMode: 0
      - serializedVersion: 2
        time: 0.5
        value: {x: 1, y: 1, z: 1}
        inSlope: {x: 0, y: 0, z: 0}
        outSlope: {x: 0, y: 0, z: 0}
        tangentMode: 0
      m_PreInfinity: 2
      m_PostInfinity: 2
      m_RotationOrder: 4
    path: Bone072/Bone067/Bone066/Bone076/Bone068
  - curve:
      serializedVersion: 2
      m_Curve:
      - serializedVersion: 2
        time: 0
        value: {x: 1.0000002, y: 1.0000001, z: 0.99999994}
        inSlope: {x: 0, y: 0, z: 0}
        outSlope: {x: 0, y: 0, z: 0}
        tangentMode: 0
      - serializedVersion: 2
        time: 0.5
        value: {x: 1.0000002, y: 1.0000001, z: 0.99999994}
        inSlope: {x: 0, y: 0, z: 0}
        outSlope: {x: 0, y: 0, z: 0}
        tangentMode: 0
      m_PreInfinity: 2
      m_PostInfinity: 2
      m_RotationOrder: 4
    path: Bone072/Bone067/Bone066/Bone076/Bone068/Bone063
  - curve:
      serializedVersion: 2
      m_Curve:
      - serializedVersion: 2
        time: 0
        value: {x: 100, y: 100, z: 100}
        inSlope: {x: 0, y: 0, z: 0}
        outSlope: {x: 0, y: 0, z: 0}
        tangentMode: 0
      - serializedVersion: 2
        time: 0.5
        value: {x: 100, y: 100, z: 100}
        inSlope: {x: 0, y: 0, z: 0}
        outSlope: {x: 0, y: 0, z: 0}
        tangentMode: 0
      m_PreInfinity: 2
      m_PostInfinity: 2
      m_RotationOrder: 4
    path: meen003
  m_FloatCurves: []
  m_PPtrCurves: []
  m_SampleRate: 30
  m_WrapMode: 0
  m_Bounds:
    m_Center: {x: 0, y: 0, z: 0}
    m_Extent: {x: 0, y: 0, z: 0}
  m_ClipBindingConstant:
    genericBindings:
    - serializedVersion: 2
      path: 3604009700
      attribute: 2
      script: {fileID: 0}
      typeID: 4
      customType: 0
      isPPtrCurve: 0
    - serializedVersion: 2
      path: 3723816439
      attribute: 2
      script: {fileID: 0}
      typeID: 4
      customType: 0
      isPPtrCurve: 0
    - serializedVersion: 2
      path: 1952656014
      attribute: 2
      script: {fileID: 0}
      typeID: 4
      customType: 0
      isPPtrCurve: 0
    - serializedVersion: 2
      path: 3749019359
      attribute: 2
      script: {fileID: 0}
      typeID: 4
      customType: 0
      isPPtrCurve: 0
    - serializedVersion: 2
      path: 3812668028
      attribute: 2
      script: {fileID: 0}
      typeID: 4
      customType: 0
      isPPtrCurve: 0
    - serializedVersion: 2
      path: 649832064
      attribute: 2
      script: {fileID: 0}
      typeID: 4
      customType: 0
      isPPtrCurve: 0
    - serializedVersion: 2
      path: 4155527691
      attribute: 2
      script: {fileID: 0}
      typeID: 4
      customType: 0
      isPPtrCurve: 0
    - serializedVersion: 2
      path: 3229959153
      attribute: 2
      script: {fileID: 0}
      typeID: 4
      customType: 0
      isPPtrCurve: 0
    - serializedVersion: 2
      path: 188547843
      attribute: 2
      script: {fileID: 0}
      typeID: 4
      customType: 0
      isPPtrCurve: 0
    - serializedVersion: 2
      path: 2963164214
      attribute: 2
      script: {fileID: 0}
      typeID: 4
      customType: 0
      isPPtrCurve: 0
    - serializedVersion: 2
      path: 3776699544
      attribute: 1
      script: {fileID: 0}
      typeID: 4
      customType: 0
      isPPtrCurve: 0
    - serializedVersion: 2
      path: 3167859705
      attribute: 1
      script: {fileID: 0}
      typeID: 4
      customType: 0
      isPPtrCurve: 0
    - serializedVersion: 2
      path: 1628137404
      attribute: 1
      script: {fileID: 0}
      typeID: 4
      customType: 0
      isPPtrCurve: 0
    - serializedVersion: 2
      path: 3604009700
      attribute: 1
      script: {fileID: 0}
      typeID: 4
      customType: 0
      isPPtrCurve: 0
    - serializedVersion: 2
      path: 2522637231
      attribute: 1
      script: {fileID: 0}
      typeID: 4
      customType: 0
      isPPtrCurve: 0
    - serializedVersion: 2
      path: 1278428331
      attribute: 1
      script: {fileID: 0}
      typeID: 4
      customType: 0
      isPPtrCurve: 0
    - serializedVersion: 2
      path: 3723816439
      attribute: 1
      script: {fileID: 0}
      typeID: 4
      customType: 0
      isPPtrCurve: 0
    - serializedVersion: 2
      path: 2796144251
      attribute: 1
      script: {fileID: 0}
      typeID: 4
      customType: 0
      isPPtrCurve: 0
    - serializedVersion: 2
      path: 1952656014
      attribute: 1
      script: {fileID: 0}
      typeID: 4
      customType: 0
      isPPtrCurve: 0
    - serializedVersion: 2
      path: 3749019359
      attribute: 1
      script: {fileID: 0}
      typeID: 4
      customType: 0
      isPPtrCurve: 0
    - serializedVersion: 2
      path: 3812668028
      attribute: 1
      script: {fileID: 0}
      typeID: 4
      customType: 0
      isPPtrCurve: 0
    - serializedVersion: 2
      path: 2338215139
      attribute: 1
      script: {fileID: 0}
      typeID: 4
      customType: 0
      isPPtrCurve: 0
    - serializedVersion: 2
      path: 649832064
      attribute: 1
      script: {fileID: 0}
      typeID: 4
      customType: 0
      isPPtrCurve: 0
    - serializedVersion: 2
      path: 4155527691
      attribute: 1
      script: {fileID: 0}
      typeID: 4
      customType: 0
      isPPtrCurve: 0
    - serializedVersion: 2
      path: 3229959153
      attribute: 1
      script: {fileID: 0}
      typeID: 4
      customType: 0
      isPPtrCurve: 0
    - serializedVersion: 2
      path: 3667470830
      attribute: 1
      script: {fileID: 0}
      typeID: 4
      customType: 0
      isPPtrCurve: 0
    - serializedVersion: 2
      path: 188547843
      attribute: 1
      script: {fileID: 0}
      typeID: 4
      customType: 0
      isPPtrCurve: 0
    - serializedVersion: 2
      path: 2963164214
      attribute: 1
      script: {fileID: 0}
      typeID: 4
      customType: 0
      isPPtrCurve: 0
    - serializedVersion: 2
      path: 2696779634
      attribute: 1
      script: {fileID: 0}
      typeID: 4
      customType: 0
      isPPtrCurve: 0
    - serializedVersion: 2
      path: 3789727434
      attribute: 1
      script: {fileID: 0}
      typeID: 4
      customType: 0
      isPPtrCurve: 0
    - serializedVersion: 2
      path: 3776699544
      attribute: 2
      script: {fileID: 0}
      typeID: 4
      customType: 0
      isPPtrCurve: 0
    - serializedVersion: 2
      path: 3167859705
      attribute: 2
      script: {fileID: 0}
      typeID: 4
      customType: 0
      isPPtrCurve: 0
    - serializedVersion: 2
      path: 1628137404
      attribute: 2
      script: {fileID: 0}
      typeID: 4
      customType: 0
      isPPtrCurve: 0
    - serializedVersion: 2
      path: 2522637231
      attribute: 2
      script: {fileID: 0}
      typeID: 4
      customType: 0
      isPPtrCurve: 0
    - serializedVersion: 2
      path: 1278428331
      attribute: 2
      script: {fileID: 0}
      typeID: 4
      customType: 0
      isPPtrCurve: 0
    - serializedVersion: 2
      path: 2796144251
      attribute: 2
      script: {fileID: 0}
      typeID: 4
      customType: 0
      isPPtrCurve: 0
    - serializedVersion: 2
      path: 2338215139
      attribute: 2
      script: {fileID: 0}
      typeID: 4
      customType: 0
      isPPtrCurve: 0
    - serializedVersion: 2
      path: 3667470830
      attribute: 2
      script: {fileID: 0}
      typeID: 4
      customType: 0
      isPPtrCurve: 0
    - serializedVersion: 2
      path: 2696779634
      attribute: 2
      script: {fileID: 0}
      typeID: 4
      customType: 0
      isPPtrCurve: 0
    - serializedVersion: 2
      path: 3789727434
      attribute: 2
      script: {fileID: 0}
      typeID: 4
      customType: 0
      isPPtrCurve: 0
    - serializedVersion: 2
      path: 3776699544
      attribute: 3
      script: {fileID: 0}
      typeID: 4
      customType: 0
      isPPtrCurve: 0
    - serializedVersion: 2
      path: 3167859705
      attribute: 3
      script: {fileID: 0}
      typeID: 4
      customType: 0
      isPPtrCurve: 0
    - serializedVersion: 2
      path: 1628137404
      attribute: 3
      script: {fileID: 0}
      typeID: 4
      customType: 0
      isPPtrCurve: 0
    - serializedVersion: 2
      path: 3604009700
      attribute: 3
      script: {fileID: 0}
      typeID: 4
      customType: 0
      isPPtrCurve: 0
    - serializedVersion: 2
      path: 2522637231
      attribute: 3
      script: {fileID: 0}
      typeID: 4
      customType: 0
      isPPtrCurve: 0
    - serializedVersion: 2
      path: 1278428331
      attribute: 3
      script: {fileID: 0}
      typeID: 4
      customType: 0
      isPPtrCurve: 0
    - serializedVersion: 2
      path: 3723816439
      attribute: 3
      script: {fileID: 0}
      typeID: 4
      customType: 0
      isPPtrCurve: 0
    - serializedVersion: 2
      path: 2796144251
      attribute: 3
      script: {fileID: 0}
      typeID: 4
      customType: 0
      isPPtrCurve: 0
    - serializedVersion: 2
      path: 1952656014
      attribute: 3
      script: {fileID: 0}
      typeID: 4
      customType: 0
      isPPtrCurve: 0
    - serializedVersion: 2
      path: 3749019359
      attribute: 3
      script: {fileID: 0}
      typeID: 4
      customType: 0
      isPPtrCurve: 0
    - serializedVersion: 2
      path: 3812668028
      attribute: 3
      script: {fileID: 0}
      typeID: 4
      customType: 0
      isPPtrCurve: 0
    - serializedVersion: 2
      path: 2338215139
      attribute: 3
      script: {fileID: 0}
      typeID: 4
      customType: 0
      isPPtrCurve: 0
    - serializedVersion: 2
      path: 649832064
      attribute: 3
      script: {fileID: 0}
      typeID: 4
      customType: 0
      isPPtrCurve: 0
    - serializedVersion: 2
      path: 4155527691
      attribute: 3
      script: {fileID: 0}
      typeID: 4
      customType: 0
      isPPtrCurve: 0
    - serializedVersion: 2
      path: 3229959153
      attribute: 3
      script: {fileID: 0}
      typeID: 4
      customType: 0
      isPPtrCurve: 0
    - serializedVersion: 2
      path: 3667470830
      attribute: 3
      script: {fileID: 0}
      typeID: 4
      customType: 0
      isPPtrCurve: 0
    - serializedVersion: 2
      path: 188547843
      attribute: 3
      script: {fileID: 0}
      typeID: 4
      customType: 0
      isPPtrCurve: 0
    - serializedVersion: 2
      path: 2963164214
      attribute: 3
      script: {fileID: 0}
      typeID: 4
      customType: 0
      isPPtrCurve: 0
    - serializedVersion: 2
      path: 2696779634
      attribute: 3
      script: {fileID: 0}
      typeID: 4
      customType: 0
      isPPtrCurve: 0
    - serializedVersion: 2
      path: 3789727434
      attribute: 3
      script: {fileID: 0}
      typeID: 4
      customType: 0
      isPPtrCurve: 0
    pptrCurveMapping: []
  m_AnimationClipSettings:
    serializedVersion: 2
    m_AdditiveReferencePoseClip: {fileID: 0}
    m_AdditiveReferencePoseTime: 0
    m_StartTime: 0
    m_StopTime: 0.5
    m_OrientationOffsetY: 0
    m_Level: 0
    m_CycleOffset: 0
    m_HasAdditiveReferencePose: 0
    m_LoopTime: 0
    m_LoopBlend: 0
    m_LoopBlendOrientation: 0
    m_LoopBlendPositionY: 0
    m_LoopBlendPositionXZ: 0
    m_KeepOriginalOrientation: 0
    m_KeepOriginalPositionY: 1
    m_KeepOriginalPositionXZ: 0
    m_HeightFromFeet: 0
    m_Mirror: 0
  m_EditorCurves: []
  m_EulerEditorCurves: []
  m_HasGenericRootTransform: 0
  m_HasMotionFloatCurves: 0
  m_GenerateMotionCurves: 0
  m_Events: []
