%YAML 1.1
%TAG !u! tag:unity3d.com,2011:
--- !u!74 &7400000
AnimationClip:
  m_ObjectHideFlags: 0
  m_PrefabParentObject: {fileID: 0}
  m_PrefabInternal: {fileID: 0}
  m_Name: run2_weapon_medium
  serializedVersion: 6
  m_Legacy: 0
  m_Compressed: 0
  m_UseHighQualityCurve: 1
  m_RotationCurves:
  - curve:
      serializedVersion: 2
      m_Curve:
      - serializedVersion: 2
        time: 0
        value: {x: -0.0000028507814, y: 0.0000028811096, z: -0.70335555, w: 0.71083826}
        inSlope: {x: 0, y: 0, z: 0, w: 0}
        outSlope: {x: 0, y: 0, z: 0, w: 0}
        tangentMode: 0
      - serializedVersion: 2
        time: 0.6666667
        value: {x: -0.0000028507814, y: 0.0000028811096, z: -0.70335555, w: 0.71083826}
        inSlope: {x: 0, y: 0, z: 0, w: 0}
        outSlope: {x: 0, y: 0, z: 0, w: 0}
        tangentMode: 0
      m_PreInfinity: 2
      m_PostInfinity: 2
      m_RotationOrder: 4
    path: Bone072
  - curve:
      serializedVersion: 2
      m_Curve:
      - serializedVersion: 2
        time: 0
        value: {x: -0.70407724, y: 0.06535449, z: 0.057900198, w: 0.7047351}
        inSlope: {x: -0.009008645, y: -0.09959891, z: -0.09968798, w: 0.007953644}
        outSlope: {x: -0.009008645, y: -0.09959891, z: -0.09968798, w: 0.007953644}
        tangentMode: 0
      - serializedVersion: 2
        time: 0.26666668
        value: {x: -0.7069392, y: -0.015261545, z: -0.022740953, w: 0.7067439}
        inSlope: {x: 0.005844534, y: -0.29982534, z: -0.29974428, w: -0.009016694}
        outSlope: {x: 0.005844534, y: -0.29982534, z: -0.29974428, w: -0.009016694}
        tangentMode: 0
      - serializedVersion: 2
        time: 0.43333337
        value: {x: -0.7070938, y: -0.003786161, z: -0.01126794, w: 0.70701987}
        inSlope: {x: -0.001716614, y: 0.35538125, z: 0.3553403, w: 0.0054770713}
        outSlope: {x: -0.001716614, y: 0.35538125, z: 0.3553403, w: 0.0054770713}
        tangentMode: 0
      - serializedVersion: 2
        time: 0.6
        value: {x: -0.7050736, y: 0.053546783, z: 0.046082705, w: 0.70560646}
        inSlope: {x: 0.02208263, y: 0.29906803, z: 0.29928255, w: -0.018917622}
        outSlope: {x: 0.02208263, y: 0.29906803, z: 0.29928255, w: -0.018917622}
        tangentMode: 0
      - serializedVersion: 2
        time: 0.6666667
        value: {x: -0.70448124, y: 0.06237022, z: 0.054911844, w: 0.7051075}
        inSlope: {x: -0.0026450155, y: -0.021292312, z: -0.021318933, w: 0.00241971}
        outSlope: {x: -0.0026450155, y: -0.021292312, z: -0.021318933, w: 0.00241971}
        tangentMode: 0
      m_PreInfinity: 2
      m_PostInfinity: 2
      m_RotationOrder: 4
    path: Bone072/Bone067
  - curve:
      serializedVersion: 2
      m_Curve:
      - serializedVersion: 2
        time: 0
        value: {x: 0.87428766, y: 0.4854082, z: -2.9722677e-17, w: -5.353468e-17}
        inSlope: {x: 0, y: 0, z: 0, w: 0}
        outSlope: {x: 0, y: 0, z: 0, w: 0}
        tangentMode: 0
      - serializedVersion: 2
        time: 0.6666667
        value: {x: 0.8742877, y: 0.4854082, z: -2.9722677e-17, w: -5.3534683e-17}
        inSlope: {x: 0, y: 0, z: 0, w: 0}
        outSlope: {x: 0, y: 0, z: 0, w: 0}
        tangentMode: 0
      m_PreInfinity: 2
      m_PostInfinity: 2
      m_RotationOrder: 4
    path: Bone072/Bone067/Bone059
  - curve:
      serializedVersion: 2
      m_Curve:
      - serializedVersion: 2
        time: 0
        value: {x: -0.052989595, y: 0.2331513, z: 0.2338553, w: 0.94241405}
        inSlope: {x: -0.025026908, y: -0.0057350094, z: 0.10115638, w: -0.02529323}
        outSlope: {x: -0.025026908, y: -0.0057350094, z: 0.10115638, w: -0.02529323}
        tangentMode: 0
      - serializedVersion: 2
        time: 0.26666668
        value: {x: -0.078332424, y: 0.22590142, z: 0.3361733, w: 0.91094464}
        inSlope: {x: -0.11600186, y: -0.039918426, z: 0.46780097, w: -0.17138602}
        outSlope: {x: -0.11600186, y: -0.039918426, z: 0.46780097, w: -0.17138602}
        tangentMode: 0
      - serializedVersion: 2
        time: 0.40000004
        value: {x: -0.078332424, y: 0.22590142, z: 0.3361733, w: 0.91094464}
        inSlope: {x: 0.11600204, y: 0.039918408, z: -0.4678017, w: 0.17138594}
        outSlope: {x: 0.11600204, y: 0.039918408, z: -0.4678017, w: 0.17138594}
        tangentMode: 0
      - serializedVersion: 2
        time: 0.6666667
        value: {x: -0.053760555, y: 0.23299907, z: 0.2369734, w: 0.94173414}
        inSlope: {x: 0.0069308286, y: 0.0016248376, z: -0.028010892, w: 0.007152558}
        outSlope: {x: 0.0069308286, y: 0.0016248376, z: -0.028010892, w: 0.007152558}
        tangentMode: 0
      m_PreInfinity: 2
      m_PostInfinity: 2
      m_RotationOrder: 4
    path: Bone072/Bone067/Bone059/Bone070
  - curve:
      serializedVersion: 2
      m_Curve:
      - serializedVersion: 2
        time: 0
        value: {x: 0.031591643, y: -0.6287633, z: 0.06934727, w: 0.7738538}
        inSlope: {x: -0.06941322, y: 0.17437397, z: 0.009258761, w: 0.1424861}
        outSlope: {x: -0.06941322, y: 0.17437397, z: 0.009258761, w: 0.1424861}
        tangentMode: 0
      - serializedVersion: 2
        time: 0.10000001
        value: {x: 0.015574103, y: -0.5872472, z: 0.07128814, w: 0.80611175}
        inSlope: {x: -0.24060711, y: 0.6476381, z: 0.025684051, w: 0.47327128}
        outSlope: {x: -0.24060711, y: 0.6476381, z: 0.025684051, w: 0.47327128}
        tangentMode: 0
      - serializedVersion: 2
        time: 0.23333335
        value: {x: -0.0145370085, y: -0.50014436, z: 0.073725194, w: 0.8626754}
        inSlope: {x: -0.2247523, y: 0.69956934, z: 0.012472496, w: 0.40157858}
        outSlope: {x: -0.2247523, y: 0.69956934, z: 0.012472496, w: 0.40157858}
        tangentMode: 0
      - serializedVersion: 2
        time: 0.36666667
        value: {x: -0.026940493, y: -0.46018088, z: 0.074274145, w: 0.8843026}
        inSlope: {x: 0.10868724, y: -0.35905147, z: -0.003946533, w: -0.18609512}
        outSlope: {x: 0.10868724, y: -0.35905147, z: -0.003946533, w: -0.18609512}
        tangentMode: 0
      - serializedVersion: 2
        time: 0.5
        value: {x: 0.00025813686, y: -0.5445484, z: 0.072723545, w: 0.83557063}
        inSlope: {x: 0.21141466, y: -0.6113846, z: -0.017027557, w: -0.39702952}
        outSlope: {x: 0.21141466, y: -0.6113846, z: -0.017027557, w: -0.39702952}
        tangentMode: 0
      - serializedVersion: 2
        time: 0.6666667
        value: {x: 0.030950252, y: -0.62721205, z: 0.0694399, w: 0.7751956}
        inSlope: {x: 0.016880665, y: -0.043542374, z: -0.00196984, w: -0.03389626}
        outSlope: {x: 0.016880665, y: -0.043542374, z: -0.00196984, w: -0.03389626}
        tangentMode: 0
      m_PreInfinity: 2
      m_PostInfinity: 2
      m_RotationOrder: 4
    path: Bone072/Bone067/Bone059/Bone070/Bone061
  - curve:
      serializedVersion: 2
      m_Curve:
      - serializedVersion: 2
        time: 0
        value: {x: 0.014318313, y: 0.8461237, z: 0.021725565, w: 0.53235114}
        inSlope: {x: 0, y: 0, z: 0, w: 0}
        outSlope: {x: 0, y: 0, z: 0, w: 0}
        tangentMode: 0
      - serializedVersion: 2
        time: 0.6666667
        value: {x: 0.014318314, y: 0.8461237, z: 0.021725567, w: 0.53235114}
        inSlope: {x: 0, y: 0, z: 0, w: 0}
        outSlope: {x: 0, y: 0, z: 0, w: 0}
        tangentMode: 0
      m_PreInfinity: 2
      m_PostInfinity: 2
      m_RotationOrder: 4
    path: Bone072/Bone067/Bone059/Bone070/Bone061/Bone071
  - curve:
      serializedVersion: 2
      m_Curve:
      - serializedVersion: 2
        time: 0
        value: {x: -0.043619253, y: 0.0000005321253, z: 0.00000002323302, w: 0.99904823}
        inSlope: {x: 0, y: 0, z: 0, w: 0}
        outSlope: {x: 0, y: 0, z: 0, w: 0}
        tangentMode: 0
      - serializedVersion: 2
        time: 0.6666667
        value: {x: -0.043619253, y: 0.0000005321253, z: 0.00000002323302, w: 0.9990483}
        inSlope: {x: 0, y: 0, z: 0, w: 0}
        outSlope: {x: 0, y: 0, z: 0, w: 0}
        tangentMode: 0
      m_PreInfinity: 2
      m_PostInfinity: 2
      m_RotationOrder: 4
    path: Bone072/Bone067/Bone062
  - curve:
      serializedVersion: 2
      m_Curve:
      - serializedVersion: 2
        time: 0
        value: {x: 7.256879e-18, y: -1.9326236e-24, z: -0.0000002663161, w: 1}
        inSlope: {x: 0, y: 0, z: 0, w: 0}
        outSlope: {x: 0, y: 0, z: 0, w: 0}
        tangentMode: 0
      - serializedVersion: 2
        time: 0.6666667
        value: {x: 7.256879e-18, y: -1.9326236e-24, z: -0.0000002663161, w: 1}
        inSlope: {x: 0, y: 0, z: 0, w: 0}
        outSlope: {x: 0, y: 0, z: 0, w: 0}
        tangentMode: 0
      m_PreInfinity: 2
      m_PostInfinity: 2
      m_RotationOrder: 4
    path: Bone072/Bone067/Bone062/Bone060
  - curve:
      serializedVersion: 2
      m_Curve:
      - serializedVersion: 2
        time: 0
        value: {x: 0.8652011, y: -0.021809462, z: -0.037775617, w: -0.49952424}
        inSlope: {x: 0, y: 0, z: 0, w: 0}
        outSlope: {x: 0, y: 0, z: 0, w: 0}
        tangentMode: 0
      - serializedVersion: 2
        time: 0.23333335
        value: {x: 0.86550206, y: -0.007901829, z: -0.044256065, w: -0.4988839}
        inSlope: {x: 0.0040188436, y: 0.3224151, z: -0.15006939, w: 0.015926065}
        outSlope: {x: 0.0040188436, y: 0.3224151, z: -0.15006939, w: 0.015926065}
        tangentMode: 0
      - serializedVersion: 2
        time: 0.36666667
        value: {x: 0.8655256, y: 0.013594985, z: -0.05424864, w: -0.49773258}
        inSlope: {x: 0.0016871088, y: -0.20867708, z: 0.09690089, w: -0.011874133}
        outSlope: {x: 0.0016871088, y: -0.20867708, z: 0.09690089, w: -0.011874133}
        tangentMode: 0
      - serializedVersion: 2
        time: 0.5
        value: {x: 0.8652011, y: -0.021809462, z: -0.037775617, w: -0.49952424}
        inSlope: {x: -0.001685323, y: -0.06163795, z: 0.028740847, w: -0.0027103748}
        outSlope: {x: -0.001685323, y: -0.06163795, z: 0.028740847, w: -0.0027103748}
        tangentMode: 0
      - serializedVersion: 2
        time: 0.6666667
        value: {x: 0.86514556, y: -0.023838695, z: -0.036829416, w: -0.49961346}
        inSlope: {x: 0.0004994868, y: 0.018263094, z: -0.0085158, w: 0.00080307305}
        outSlope: {x: 0.0004994868, y: 0.018263094, z: -0.0085158, w: 0.00080307305}
        tangentMode: 0
      m_PreInfinity: 2
      m_PostInfinity: 2
      m_RotationOrder: 4
    path: Bone072/Bone067/Bone062/Bone060/Bone058
  - curve:
      serializedVersion: 2
      m_Curve:
      - serializedVersion: 2
        time: 0
        value: {x: -0.0038091, y: 0.003260013, z: 0.75974, w: 0.65020764}
        inSlope: {x: 0, y: 0, z: 0, w: 0}
        outSlope: {x: 0, y: 0, z: 0, w: 0}
        tangentMode: 0
      - serializedVersion: 2
        time: 0.6666667
        value: {x: -0.0038091002, y: 0.0032600132, z: 0.75974, w: 0.65020764}
        inSlope: {x: 0, y: 0, z: 0, w: 0}
        outSlope: {x: 0, y: 0, z: 0, w: 0}
        tangentMode: 0
      m_PreInfinity: 2
      m_PostInfinity: 2
      m_RotationOrder: 4
    path: Bone072/Bone067/Bone062/Bone069
  - curve:
      serializedVersion: 2
      m_Curve:
      - serializedVersion: 2
        time: 0
        value: {x: -0.0016099361, y: 0.081235826, z: 0.2956013, w: 0.9518498}
        inSlope: {x: 0, y: 0, z: 0, w: 0}
        outSlope: {x: 0, y: 0, z: 0, w: 0}
        tangentMode: 0
      - serializedVersion: 2
        time: 0.6666667
        value: {x: -0.0016099362, y: 0.081235826, z: 0.2956013, w: 0.9518499}
        inSlope: {x: 0, y: 0, z: 0, w: 0}
        outSlope: {x: 0, y: 0, z: 0, w: 0}
        tangentMode: 0
      m_PreInfinity: 2
      m_PostInfinity: 2
      m_RotationOrder: 4
    path: Bone072/Bone067/Bone062/Bone069/Bone074
  - curve:
      serializedVersion: 2
      m_Curve:
      - serializedVersion: 2
        time: 0
        value: {x: 0.058761187, y: 0.5715627, z: 0.22987811, w: 0.78550583}
        inSlope: {x: 0, y: 0, z: 0, w: 0}
        outSlope: {x: 0, y: 0, z: 0, w: 0}
        tangentMode: 0
      - serializedVersion: 2
        time: 0.6666667
        value: {x: 0.058761187, y: 0.5715627, z: 0.22987811, w: 0.7855059}
        inSlope: {x: 0, y: 0, z: 0, w: 0}
        outSlope: {x: 0, y: 0, z: 0, w: 0}
        tangentMode: 0
      m_PreInfinity: 2
      m_PostInfinity: 2
      m_RotationOrder: 4
    path: Bone072/Bone067/Bone062/Bone069/Bone074/Bone075
  - curve:
      serializedVersion: 2
      m_Curve:
      - serializedVersion: 2
        time: 0
        value: {x: 0.7818293, y: 0.61974365, z: 0.06733419, w: -0.011271041}
        inSlope: {x: 0, y: 0, z: 0, w: 0}
        outSlope: {x: 0, y: 0, z: 0, w: 0}
        tangentMode: 0
      - serializedVersion: 2
        time: 0.6666667
        value: {x: 0.78182936, y: 0.6197437, z: 0.06733419, w: -0.011271042}
        inSlope: {x: 0, y: 0, z: 0, w: 0}
        outSlope: {x: 0, y: 0, z: 0, w: 0}
        tangentMode: 0
      m_PreInfinity: 2
      m_PostInfinity: 2
      m_RotationOrder: 4
    path: Bone072/Bone067/Bone062/Bone073
  - curve:
      serializedVersion: 2
      m_Curve:
      - serializedVersion: 2
        time: 0
        value: {x: -0.00204479, y: 0.40936324, z: 0.222142, w: 0.8849127}
        inSlope: {x: 0, y: 0, z: 0, w: 0}
        outSlope: {x: 0, y: 0, z: 0, w: 0}
        tangentMode: 0
      - serializedVersion: 2
        time: 0.6666667
        value: {x: -0.00204479, y: 0.40936324, z: 0.22214201, w: 0.8849128}
        inSlope: {x: 0, y: 0, z: 0, w: 0}
        outSlope: {x: 0, y: 0, z: 0, w: 0}
        tangentMode: 0
      m_PreInfinity: 2
      m_PostInfinity: 2
      m_RotationOrder: 4
    path: Bone072/Bone067/Bone062/Bone073/Bone065
  - curve:
      serializedVersion: 2
      m_Curve:
      - serializedVersion: 2
        time: 0
        value: {x: 0.064192474, y: 0.45610365, z: 0.26457143, w: 0.8472607}
        inSlope: {x: 0, y: 0, z: 0, w: 0}
        outSlope: {x: 0, y: 0, z: 0, w: 0}
        tangentMode: 0
      - serializedVersion: 2
        time: 0.6666667
        value: {x: 0.064192474, y: 0.45610365, z: 0.26457143, w: 0.8472607}
        inSlope: {x: 0, y: 0, z: 0, w: 0}
        outSlope: {x: 0, y: 0, z: 0, w: 0}
        tangentMode: 0
      m_PreInfinity: 2
      m_PostInfinity: 2
      m_RotationOrder: 4
    path: Bone072/Bone067/Bone062/Bone073/Bone065/Bone064
  - curve:
      serializedVersion: 2
      m_Curve:
      - serializedVersion: 2
        time: 0
        value: {x: 0.00000006802636, y: 0.000000025749033, z: 0.87428725, w: 0.48540887}
        inSlope: {x: 0, y: 0, z: 0, w: 0}
        outSlope: {x: 0, y: 0, z: 0, w: 0}
        tangentMode: 0
      - serializedVersion: 2
        time: 0.6666667
        value: {x: 0.00000006802636, y: 0.000000025749033, z: 0.87428725, w: 0.48540887}
        inSlope: {x: 0, y: 0, z: 0, w: 0}
        outSlope: {x: 0, y: 0, z: 0, w: 0}
        tangentMode: 0
      m_PreInfinity: 2
      m_PostInfinity: 2
      m_RotationOrder: 4
    path: Bone072/Bone067/Bone066
  - curve:
      serializedVersion: 2
      m_Curve:
      - serializedVersion: 2
        time: 0
        value: {x: -0.093664505, y: 0.26442185, z: 0.3095445, w: 0.9085649}
        inSlope: {x: -0.05244724, y: -0.06625414, z: 0.26258647, w: -0.077092044}
        outSlope: {x: -0.05244724, y: -0.06625414, z: 0.26258647, w: -0.077092044}
        tangentMode: 0
      - serializedVersion: 2
        time: 0.06666667
        value: {x: -0.099723734, y: 0.2565286, z: 0.34056237, w: 0.8990359}
        inSlope: {x: -0.14650527, y: -0.20147522, z: 0.78043824, w: -0.25845405}
        outSlope: {x: -0.14650527, y: -0.20147522, z: 0.78043824, w: -0.25845405}
        tangentMode: 0
      - serializedVersion: 2
        time: 0.16666667
        value: {x: -0.11487513, y: 0.23306048, z: 0.42889568, w: 0.8651792}
        inSlope: {x: -0.124699906, y: -0.22213939, z: 0.81174946, w: -0.35913163}
        outSlope: {x: -0.124699906, y: -0.22213939, z: 0.81174946, w: -0.35913163}
        tangentMode: 0
      - serializedVersion: 2
        time: 0.36666667
        value: {x: -0.12869558, y: 0.20327763, z: 0.5341798, w: 0.810412}
        inSlope: {x: 0.047085032, y: 0.12331694, z: -0.42396668, w: 0.25131926}
        outSlope: {x: 0.047085032, y: 0.12331694, z: -0.42396668, w: 0.25131926}
        tangentMode: 0
      - serializedVersion: 2
        time: 0.5
        value: {x: -0.11487513, y: 0.23306048, z: 0.42889568, w: 0.8651792}
        inSlope: {x: 0.124699816, y: 0.22213967, z: -0.81174916, w: 0.35913083}
        outSlope: {x: 0.124699816, y: 0.22213967, z: -0.81174916, w: 0.35913083}
        tangentMode: 0
      - serializedVersion: 2
        time: 0.6666667
        value: {x: -0.094173186, y: 0.26382306, z: 0.31196162, w: 0.9079431}
        inSlope: {x: 0.01204807, y: 0.016602647, z: -0.064027, w: 0.020727212}
        outSlope: {x: 0.01204807, y: 0.016602647, z: -0.064027, w: 0.020727212}
        tangentMode: 0
      m_PreInfinity: 2
      m_PostInfinity: 2
      m_RotationOrder: 4
    path: Bone072/Bone067/Bone066/Bone076
  - curve:
      serializedVersion: 2
      m_Curve:
      - serializedVersion: 2
        time: 0
        value: {x: -0.028961299, y: -0.45340756, z: 0.074338265, w: 0.88772553}
        inSlope: {x: 0.023961512, y: -0.13221681, z: -0.018470136, w: -0.0656265}
        outSlope: {x: 0.023961512, y: -0.13221681, z: -0.018470136, w: -0.0656265}
        tangentMode: 0
      - serializedVersion: 2
        time: 0.13333334
        value: {x: -0.019247066, y: -0.50718135, z: 0.07244121, w: 0.85857373}
        inSlope: {x: 0.12445832, y: -0.6274452, z: 0.046105836, w: -0.37258926}
        outSlope: {x: 0.12445832, y: -0.6274452, z: 0.046105836, w: -0.37258926}
        tangentMode: 0
      - serializedVersion: 2
        time: 0.16666667
        value: {x: -0.014738343, y: -0.5286531, z: 0.074953414, w: 0.84539384}
        inSlope: {x: -0.1937649, y: -0.8720646, z: 0.37146738, w: -0.601209}
        outSlope: {x: -0.1937649, y: -0.8720646, z: 0.37146738, w: -0.601209}
        tangentMode: 0
      - serializedVersion: 2
        time: 0.20000002
        value: {x: -0.032164734, y: -0.565319, z: 0.09720571, w: 0.8184931}
        inSlope: {x: -0.631492, y: -1.480202, z: 0.6886445, w: -1.1727234}
        outSlope: {x: -0.631492, y: -1.480202, z: 0.6886445, w: -1.1727234}
        tangentMode: 0
      - serializedVersion: 2
        time: 0.23333335
        value: {x: -0.056837816, y: -0.6273332, z: 0.12086306, w: 0.7672123}
        inSlope: {x: -0.3120653, y: -1.8412178, z: 0.23292685, w: -1.5542401}
        outSlope: {x: -0.3120653, y: -1.8412178, z: 0.23292685, w: -1.5542401}
        tangentMode: 0
      - serializedVersion: 2
        time: 0.26666668
        value: {x: -0.052969087, y: -0.68806684, z: 0.11273417, w: 0.7148771}
        inSlope: {x: 0.37483984, y: -1.3862319, z: -0.5092739, w: -1.1876394}
        outSlope: {x: 0.37483984, y: -1.3862319, z: -0.5092739, w: -1.1876394}
        tangentMode: 0
      - serializedVersion: 2
        time: 0.33333334
        value: {x: -0.02111134, y: -0.72686833, z: 0.07395628, w: 0.68245685}
        inSlope: {x: 0.000004246831, y: 0, z: 0.000004246831, w: -0.0000008940697}
        outSlope: {x: 0.000004246831, y: 0, z: 0.000004246831, w: -0.0000008940697}
        tangentMode: 0
      - serializedVersion: 2
        time: 0.40000004
        value: {x: -0.052969396, y: -0.6880667, z: 0.11273401, w: 0.71487725}
        inSlope: {x: -0.37484303, y: 1.3862332, z: 0.50926995, w: 1.1876408}
        outSlope: {x: -0.37484303, y: 1.3862332, z: 0.50926995, w: 1.1876408}
        tangentMode: 0
      - serializedVersion: 2
        time: 0.43333337
        value: {x: -0.056837764, y: -0.6273331, z: 0.1208631, w: 0.76721233}
        inSlope: {x: 0.3120736, y: 1.8412178, z: -0.2329216, w: 1.5542383}
        outSlope: {x: 0.3120736, y: 1.8412178, z: -0.2329216, w: 1.5542383}
        tangentMode: 0
      - serializedVersion: 2
        time: 0.4666667
        value: {x: -0.03216449, y: -0.5653189, z: 0.09720591, w: 0.8184931}
        inSlope: {x: 0.63149154, y: 1.4802009, z: -0.68864566, w: 1.172723}
        outSlope: {x: 0.63149154, y: 1.4802009, z: -0.68864566, w: 1.172723}
        tangentMode: 0
      - serializedVersion: 2
        time: 0.5
        value: {x: -0.014738343, y: -0.5286531, z: 0.074953414, w: 0.84539384}
        inSlope: {x: 0.19376159, y: 0.8720633, z: -0.3714706, w: 0.60121024}
        outSlope: {x: 0.19376159, y: 0.8720633, z: -0.3714706, w: 0.60121024}
        tangentMode: 0
      - serializedVersion: 2
        time: 0.5666667
        value: {x: -0.023035454, y: -0.48682338, z: 0.07187993, w: 0.8702331}
        inSlope: {x: -0.10233714, y: 0.5628419, z: 0.0020935936, w: 0.31349212}
        outSlope: {x: -0.10233714, y: 0.5628419, z: 0.0020935936, w: 0.31349212}
        tangentMode: 0
      - serializedVersion: 2
        time: 0.6666667
        value: {x: -0.028484784, y: -0.45625198, z: 0.0730308, w: 0.8867464}
        inSlope: {x: -0.0026965819, y: 0.020410543, z: 0.008700373, w: 0.007067444}
        outSlope: {x: -0.0026965819, y: 0.020410543, z: 0.008700373, w: 0.007067444}
        tangentMode: 0
      m_PreInfinity: 2
      m_PostInfinity: 2
      m_RotationOrder: 4
    path: Bone072/Bone067/Bone066/Bone076/Bone068
  - curve:
      serializedVersion: 2
      m_Curve:
      - serializedVersion: 2
        time: 0
        value: {x: 0.014318313, y: 0.8461237, z: 0.021725565, w: 0.53235114}
        inSlope: {x: 0, y: 0, z: 0, w: 0}
        outSlope: {x: 0, y: 0, z: 0, w: 0}
        tangentMode: 0
      - serializedVersion: 2
        time: 0.6666667
        value: {x: 0.014318314, y: 0.8461237, z: 0.021725567, w: 0.53235114}
        inSlope: {x: 0, y: 0, z: 0, w: 0}
        outSlope: {x: 0, y: 0, z: 0, w: 0}
        tangentMode: 0
      m_PreInfinity: 2
      m_PostInfinity: 2
      m_RotationOrder: 4
    path: Bone072/Bone067/Bone066/Bone076/Bone068/Bone063
  - curve:
      serializedVersion: 2
      m_Curve:
      - serializedVersion: 2
        time: 0
        value: {x: -0.7071068, y: 0, z: -0, w: 0.7071068}
        inSlope: {x: 0, y: 0, z: 0, w: 0}
        outSlope: {x: 0, y: 0, z: 0, w: 0}
        tangentMode: 0
      - serializedVersion: 2
        time: 0.6666667
        value: {x: -0.7071068, y: 0, z: 0, w: 0.7071068}
        inSlope: {x: 0, y: 0, z: 0, w: 0}
        outSlope: {x: 0, y: 0, z: 0, w: 0}
        tangentMode: 0
      m_PreInfinity: 2
      m_PostInfinity: 2
      m_RotationOrder: 4
    path: meen003
  m_CompressedRotationCurves: []
  m_EulerCurves: []
  m_PositionCurves:
  - curve:
      serializedVersion: 2
      m_Curve:
      - serializedVersion: 2
        time: 0
        value: {x: -0, y: 0, z: -4.1713733e-12}
        inSlope: {x: -0, y: 0.00000024058622, z: -3.231174e-26}
        outSlope: {x: -0, y: 0.00000024058622, z: -3.231174e-26}
        tangentMode: 0
      - serializedVersion: 2
        time: 0.16666667
        value: {x: -0, y: 0.0032480715, z: -4.1713733e-12}
        inSlope: {x: -0, y: 0.00000026611448, z: -1.3847891e-26}
        outSlope: {x: -0, y: -0.00000028399575, z: -3.231173e-26}
        tangentMode: 0
      - serializedVersion: 2
        time: 0.33333334
        value: {x: -0, y: 0, z: -4.1713733e-12}
        inSlope: {x: -0, y: -0.00000023582986, z: -1.3847891e-26}
        outSlope: {x: -0, y: 0.00000023220434, z: -3.2311743e-26}
        tangentMode: 0
      - serializedVersion: 2
        time: 0.5
        value: {x: -0, y: 0.0032480715, z: -4.1713733e-12}
        inSlope: {x: -0, y: 0.0000002392926, z: -1.3847903e-26}
        outSlope: {x: -0, y: -0.00000022013354, z: -3.2311715e-26}
        tangentMode: 0
      - serializedVersion: 2
        time: 0.6666667
        value: {x: -0, y: 0, z: -4.1713733e-12}
        inSlope: {x: -0, y: -0.00000022387253, z: -1.3847903e-26}
        outSlope: {x: -0, y: 0.0000002109833, z: -3.2311715e-26}
        tangentMode: 0
      m_PreInfinity: 2
      m_PostInfinity: 2
      m_RotationOrder: 4
    path: Bone072
  - curve:
      serializedVersion: 2
      m_Curve:
      - serializedVersion: 2
        time: 0
        value: {x: -0.021053964, y: -0.0000000050105156, z: 2.3578337e-10}
        inSlope: {x: 0, y: 0, z: 0}
        outSlope: {x: 0, y: 0, z: 0}
        tangentMode: 0
      - serializedVersion: 2
        time: 0.6666667
        value: {x: -0.021053962, y: -0.0000000050105156, z: 2.3578337e-10}
        inSlope: {x: 0, y: 0, z: 0}
        outSlope: {x: 0, y: 0, z: 0}
        tangentMode: 0
      m_PreInfinity: 2
      m_PostInfinity: 2
      m_RotationOrder: 4
    path: Bone072/Bone067
  - curve:
      serializedVersion: 2
      m_Curve:
      - serializedVersion: 2
        time: 0
        value: {x: -0.0067110364, y: 0.0001286862, z: 0}
        inSlope: {x: 0, y: 0, z: 0}
        outSlope: {x: 0, y: 0, z: 0}
        tangentMode: 0
      - serializedVersion: 2
        time: 0.6666667
        value: {x: -0.0067110364, y: 0.0001286862, z: 0}
        inSlope: {x: 0, y: 0, z: 0}
        outSlope: {x: 0, y: 0, z: 0}
        tangentMode: 0
      m_PreInfinity: 2
      m_PostInfinity: 2
      m_RotationOrder: 4
    path: Bone072/Bone067/Bone059
  - curve:
      serializedVersion: 2
      m_Curve:
      - serializedVersion: 2
        time: 0
        value: {x: -0.0093581, y: 0.0000000020489097, z: 1.5255352e-13}
        inSlope: {x: 0, y: 0, z: 0}
        outSlope: {x: 0, y: 0, z: 0}
        tangentMode: 0
      - serializedVersion: 2
        time: 0.6666667
        value: {x: -0.0093581, y: 0.0000000020489097, z: 1.5255351e-13}
        inSlope: {x: 0, y: 0, z: 0}
        outSlope: {x: 0, y: 0, z: 0}
        tangentMode: 0
      m_PreInfinity: 2
      m_PostInfinity: 2
      m_RotationOrder: 4
    path: Bone072/Bone067/Bone059/Bone070
  - curve:
      serializedVersion: 2
      m_Curve:
      - serializedVersion: 2
        time: 0
        value: {x: -0.009528894, y: -0.00000036200547, z: 1.8764651e-11}
        inSlope: {x: 0, y: 0, z: 0}
        outSlope: {x: 0, y: 0, z: 0}
        tangentMode: 0
      - serializedVersion: 2
        time: 0.6666667
        value: {x: -0.009528894, y: -0.00000036200544, z: 1.8764651e-11}
        inSlope: {x: 0, y: 0, z: 0}
        outSlope: {x: 0, y: 0, z: 0}
        tangentMode: 0
      m_PreInfinity: 2
      m_PostInfinity: 2
      m_RotationOrder: 4
    path: Bone072/Bone067/Bone059/Bone070/Bone061
  - curve:
      serializedVersion: 2
      m_Curve:
      - serializedVersion: 2
        time: 0
        value: {x: -0.014518151, y: 0.00000006854534, z: 1.4901161e-10}
        inSlope: {x: 0, y: 0, z: 0}
        outSlope: {x: 0, y: 0, z: 0}
        tangentMode: 0
      - serializedVersion: 2
        time: 0.6666667
        value: {x: -0.014518151, y: 0.00000006854534, z: 1.4901161e-10}
        inSlope: {x: 0, y: 0, z: 0}
        outSlope: {x: 0, y: 0, z: 0}
        tangentMode: 0
      m_PreInfinity: 2
      m_PostInfinity: 2
      m_RotationOrder: 4
    path: Bone072/Bone067/Bone059/Bone070/Bone061/Bone071
  - curve:
      serializedVersion: 2
      m_Curve:
      - serializedVersion: 2
        time: 0
        value: {x: -0.006711036, y: 3.732498e-10, z: -0.0000000023841857}
        inSlope: {x: 0, y: 0, z: 0}
        outSlope: {x: 0, y: 0, z: 0}
        tangentMode: 0
      - serializedVersion: 2
        time: 0.6666667
        value: {x: -0.006711036, y: 3.732498e-10, z: -0.0000000023841857}
        inSlope: {x: 0, y: 0, z: 0}
        outSlope: {x: 0, y: 0, z: 0}
        tangentMode: 0
      m_PreInfinity: 2
      m_PostInfinity: 2
      m_RotationOrder: 4
    path: Bone072/Bone067/Bone062
  - curve:
      serializedVersion: 2
      m_Curve:
      - serializedVersion: 2
        time: 0
        value: {x: -0.023557335, y: -3.971877e-11, z: 5.442757e-13}
        inSlope: {x: 0, y: 0, z: 0}
        outSlope: {x: 0, y: 0, z: 0}
        tangentMode: 0
      - serializedVersion: 2
        time: 0.6666667
        value: {x: -0.023557335, y: -3.9718766e-11, z: 5.442757e-13}
        inSlope: {x: 0, y: 0, z: 0}
        outSlope: {x: 0, y: 0, z: 0}
        tangentMode: 0
      m_PreInfinity: 2
      m_PostInfinity: 2
      m_RotationOrder: 4
    path: Bone072/Bone067/Bone062/Bone060
  - curve:
      serializedVersion: 2
      m_Curve:
      - serializedVersion: 2
        time: 0
        value: {x: -0.004921532, y: -0.000000001117587, z: 5.701733e-10}
        inSlope: {x: 0, y: 0, z: 0}
        outSlope: {x: 0, y: 0, z: 0}
        tangentMode: 0
      - serializedVersion: 2
        time: 0.6666667
        value: {x: -0.004921532, y: -0.0000000011175869, z: 5.7017324e-10}
        inSlope: {x: 0, y: 0, z: 0}
        outSlope: {x: 0, y: 0, z: 0}
        tangentMode: 0
      m_PreInfinity: 2
      m_PostInfinity: 2
      m_RotationOrder: 4
    path: Bone072/Bone067/Bone062/Bone060/Bone058
  - curve:
      serializedVersion: 2
      m_Curve:
      - serializedVersion: 2
        time: 0
        value: {x: -0.023557333, y: 0.0000000024121103, z: 0.0000000027312566}
        inSlope: {x: 0, y: 0, z: 0}
        outSlope: {x: 0, y: 0, z: 0}
        tangentMode: 0
      - serializedVersion: 2
        time: 0.6666667
        value: {x: -0.023557333, y: 0.0000000024121103, z: 0.0000000027312566}
        inSlope: {x: 0, y: 0, z: 0}
        outSlope: {x: 0, y: 0, z: 0}
        tangentMode: 0
      m_PreInfinity: 2
      m_PostInfinity: 2
      m_RotationOrder: 4
    path: Bone072/Bone067/Bone062/Bone069
  - curve:
      serializedVersion: 2
      m_Curve:
      - serializedVersion: 2
        time: 0
        value: {x: -0.014545313, y: -2.3783286e-11, z: 9.2764064e-17}
        inSlope: {x: 0, y: 0, z: 0}
        outSlope: {x: 0, y: 0, z: 0}
        tangentMode: 0
      - serializedVersion: 2
        time: 0.6666667
        value: {x: -0.014545313, y: -2.3783286e-11, z: 9.2764064e-17}
        inSlope: {x: 0, y: 0, z: 0}
        outSlope: {x: 0, y: 0, z: 0}
        tangentMode: 0
      m_PreInfinity: 2
      m_PostInfinity: 2
      m_RotationOrder: 4
    path: Bone072/Bone067/Bone062/Bone069/Bone074
  - curve:
      serializedVersion: 2
      m_Curve:
      - serializedVersion: 2
        time: 0
        value: {x: -0.0101224575, y: -2.8012436e-11, z: 3.137934e-12}
        inSlope: {x: 0, y: 0, z: 0}
        outSlope: {x: 0, y: 0, z: 0}
        tangentMode: 0
      - serializedVersion: 2
        time: 0.6666667
        value: {x: -0.010122457, y: -2.8012436e-11, z: 3.137934e-12}
        inSlope: {x: 0, y: 0, z: 0}
        outSlope: {x: 0, y: 0, z: 0}
        tangentMode: 0
      m_PreInfinity: 2
      m_PostInfinity: 2
      m_RotationOrder: 4
    path: Bone072/Bone067/Bone062/Bone069/Bone074/Bone075
  - curve:
      serializedVersion: 2
      m_Curve:
      - serializedVersion: 2
        time: 0
        value: {x: -0.023557333, y: -0.000005602053, z: -0.000000014305114}
        inSlope: {x: 0, y: 0, z: 0}
        outSlope: {x: 0, y: 0, z: 0}
        tangentMode: 0
      - serializedVersion: 2
        time: 0.6666667
        value: {x: -0.023557333, y: -0.000005602053, z: -0.0000000143051135}
        inSlope: {x: 0, y: 0, z: 0}
        outSlope: {x: 0, y: 0, z: 0}
        tangentMode: 0
      m_PreInfinity: 2
      m_PostInfinity: 2
      m_RotationOrder: 4
    path: Bone072/Bone067/Bone062/Bone073
  - curve:
      serializedVersion: 2
      m_Curve:
      - serializedVersion: 2
        time: 0
        value: {x: -0.014545313, y: -2.3783286e-11, z: 9.2764064e-17}
        inSlope: {x: 0, y: 0, z: 0}
        outSlope: {x: 0, y: 0, z: 0}
        tangentMode: 0
      - serializedVersion: 2
        time: 0.6666667
        value: {x: -0.014545313, y: -2.3783286e-11, z: 9.2764064e-17}
        inSlope: {x: 0, y: 0, z: 0}
        outSlope: {x: 0, y: 0, z: 0}
        tangentMode: 0
      m_PreInfinity: 2
      m_PostInfinity: 2
      m_RotationOrder: 4
    path: Bone072/Bone067/Bone062/Bone073/Bone065
  - curve:
      serializedVersion: 2
      m_Curve:
      - serializedVersion: 2
        time: 0
        value: {x: -0.0101224575, y: -2.8012436e-11, z: 3.137934e-12}
        inSlope: {x: 0, y: 0, z: 0}
        outSlope: {x: 0, y: 0, z: 0}
        tangentMode: 0
      - serializedVersion: 2
        time: 0.6666667
        value: {x: -0.010122457, y: -2.8012436e-11, z: 3.137934e-12}
        inSlope: {x: 0, y: 0, z: 0}
        outSlope: {x: 0, y: 0, z: 0}
        tangentMode: 0
      m_PreInfinity: 2
      m_PostInfinity: 2
      m_RotationOrder: 4
    path: Bone072/Bone067/Bone062/Bone073/Bone065/Bone064
  - curve:
      serializedVersion: 2
      m_Curve:
      - serializedVersion: 2
        time: 0
        value: {x: -0.0067110364, y: 0.000000003948371, z: -3.196566e-14}
        inSlope: {x: 0, y: 0, z: 0}
        outSlope: {x: 0, y: 0, z: 0}
        tangentMode: 0
      - serializedVersion: 2
        time: 0.6666667
        value: {x: -0.0067110364, y: 0.000000003948371, z: -3.196566e-14}
        inSlope: {x: 0, y: 0, z: 0}
        outSlope: {x: 0, y: 0, z: 0}
        tangentMode: 0
      m_PreInfinity: 2
      m_PostInfinity: 2
      m_RotationOrder: 4
    path: Bone072/Bone067/Bone066
  - curve:
      serializedVersion: 2
      m_Curve:
      - serializedVersion: 2
        time: 0
        value: {x: -0.0093581, y: 0.0000000020489097, z: 1.5255352e-13}
        inSlope: {x: 0, y: 0, z: 0}
        outSlope: {x: 0, y: 0, z: 0}
        tangentMode: 0
      - serializedVersion: 2
        time: 0.6666667
        value: {x: -0.0093581, y: 0.0000000020489097, z: 1.5255351e-13}
        inSlope: {x: 0, y: 0, z: 0}
        outSlope: {x: 0, y: 0, z: 0}
        tangentMode: 0
      m_PreInfinity: 2
      m_PostInfinity: 2
      m_RotationOrder: 4
    path: Bone072/Bone067/Bone066/Bone076
  - curve:
      serializedVersion: 2
      m_Curve:
      - serializedVersion: 2
        time: 0
        value: {x: -0.009528894, y: -0.00000036200547, z: 1.8764651e-11}
        inSlope: {x: 0, y: 0, z: 0}
        outSlope: {x: 0, y: 0, z: 0}
        tangentMode: 0
      - serializedVersion: 2
        time: 0.6666667
        value: {x: -0.009528894, y: -0.00000036200544, z: 1.8764651e-11}
        inSlope: {x: 0, y: 0, z: 0}
        outSlope: {x: 0, y: 0, z: 0}
        tangentMode: 0
      m_PreInfinity: 2
      m_PostInfinity: 2
      m_RotationOrder: 4
    path: Bone072/Bone067/Bone066/Bone076/Bone068
  - curve:
      serializedVersion: 2
      m_Curve:
      - serializedVersion: 2
        time: 0
        value: {x: -0.014518151, y: 0.00000006854534, z: 1.4901161e-10}
        inSlope: {x: 0, y: 0, z: 0}
        outSlope: {x: 0, y: 0, z: 0}
        tangentMode: 0
      - serializedVersion: 2
        time: 0.6666667
        value: {x: -0.014518151, y: 0.00000006854534, z: 1.4901161e-10}
        inSlope: {x: 0, y: 0, z: 0}
        outSlope: {x: 0, y: 0, z: 0}
        tangentMode: 0
      m_PreInfinity: 2
      m_PostInfinity: 2
      m_RotationOrder: 4
    path: Bone072/Bone067/Bone066/Bone076/Bone068/Bone063
  - curve:
      serializedVersion: 2
      m_Curve:
      - serializedVersion: 2
        time: 0
        value: {x: -0.009567947, y: 0, z: 0}
        inSlope: {x: 0, y: 0, z: 0}
        outSlope: {x: 0, y: 0, z: 0}
        tangentMode: 0
      - serializedVersion: 2
        time: 0.6666667
        value: {x: -0.009567947, y: 0, z: 0}
        inSlope: {x: 0, y: 0, z: 0}
        outSlope: {x: 0, y: 0, z: 0}
        tangentMode: 0
      m_PreInfinity: 2
      m_PostInfinity: 2
      m_RotationOrder: 4
    path: meen003
  m_ScaleCurves:
  - curve:
      serializedVersion: 2
      m_Curve:
      - serializedVersion: 2
        time: 0
        value: {x: 1, y: 1, z: 1}
        inSlope: {x: 0, y: 0, z: 0}
        outSlope: {x: 0, y: 0, z: 0}
        tangentMode: 0
      - serializedVersion: 2
        time: 0.6666667
        value: {x: 1, y: 1, z: 1}
        inSlope: {x: 0, y: 0, z: 0}
        outSlope: {x: 0, y: 0, z: 0}
        tangentMode: 0
      m_PreInfinity: 2
      m_PostInfinity: 2
      m_RotationOrder: 4
    path: Bone072
  - curve:
      serializedVersion: 2
      m_Curve:
      - serializedVersion: 2
        time: 0
        value: {x: 1, y: 1, z: 1}
        inSlope: {x: 0, y: 0, z: 0}
        outSlope: {x: 0, y: 0, z: 0}
        tangentMode: 0
      - serializedVersion: 2
        time: 0.6666667
        value: {x: 1, y: 1, z: 1}
        inSlope: {x: 0, y: 0, z: 0}
        outSlope: {x: 0, y: 0, z: 0}
        tangentMode: 0
      m_PreInfinity: 2
      m_PostInfinity: 2
      m_RotationOrder: 4
    path: Bone072/Bone067
  - curve:
      serializedVersion: 2
      m_Curve:
      - serializedVersion: 2
        time: 0
        value: {x: -1, y: -1, z: -1}
        inSlope: {x: 0, y: 0, z: 0}
        outSlope: {x: 0, y: 0, z: 0}
        tangentMode: 0
      - serializedVersion: 2
        time: 0.6666667
        value: {x: -1, y: -1, z: -1}
        inSlope: {x: 0, y: 0, z: 0}
        outSlope: {x: 0, y: 0, z: 0}
        tangentMode: 0
      m_PreInfinity: 2
      m_PostInfinity: 2
      m_RotationOrder: 4
    path: Bone072/Bone067/Bone059
  - curve:
      serializedVersion: 2
      m_Curve:
      - serializedVersion: 2
        time: 0
        value: {x: 1, y: 1, z: 1}
        inSlope: {x: 0, y: 0, z: 0}
        outSlope: {x: 0, y: 0, z: 0}
        tangentMode: 0
      - serializedVersion: 2
        time: 0.6666667
        value: {x: 1, y: 1, z: 1}
        inSlope: {x: 0, y: 0, z: 0}
        outSlope: {x: 0, y: 0, z: 0}
        tangentMode: 0
      m_PreInfinity: 2
      m_PostInfinity: 2
      m_RotationOrder: 4
    path: Bone072/Bone067/Bone059/Bone070
  - curve:
      serializedVersion: 2
      m_Curve:
      - serializedVersion: 2
        time: 0
        value: {x: 1, y: 1, z: 1}
        inSlope: {x: 0, y: 0, z: 0}
        outSlope: {x: 0, y: 0, z: 0}
        tangentMode: 0
      - serializedVersion: 2
        time: 0.6666667
        value: {x: 1, y: 1, z: 1}
        inSlope: {x: 0, y: 0, z: 0}
        outSlope: {x: 0, y: 0, z: 0}
        tangentMode: 0
      m_PreInfinity: 2
      m_PostInfinity: 2
      m_RotationOrder: 4
    path: Bone072/Bone067/Bone059/Bone070/Bone061
  - curve:
      serializedVersion: 2
      m_Curve:
      - serializedVersion: 2
        time: 0
        value: {x: 1.0000002, y: 1.0000001, z: 0.99999994}
        inSlope: {x: 0, y: 0, z: 0}
        outSlope: {x: 0, y: 0, z: 0}
        tangentMode: 0
      - serializedVersion: 2
        time: 0.6666667
        value: {x: 1.0000002, y: 1.0000001, z: 0.99999994}
        inSlope: {x: 0, y: 0, z: 0}
        outSlope: {x: 0, y: 0, z: 0}
        tangentMode: 0
      m_PreInfinity: 2
      m_PostInfinity: 2
      m_RotationOrder: 4
    path: Bone072/Bone067/Bone059/Bone070/Bone061/Bone071
  - curve:
      serializedVersion: 2
      m_Curve:
      - serializedVersion: 2
        time: 0
        value: {x: 1, y: 0.99999994, z: 0.9999999}
        inSlope: {x: 0, y: 0, z: 0}
        outSlope: {x: 0, y: 0, z: 0}
        tangentMode: 0
      - serializedVersion: 2
        time: 0.6666667
        value: {x: 1, y: 0.99999994, z: 0.9999999}
        inSlope: {x: 0, y: 0, z: 0}
        outSlope: {x: 0, y: 0, z: 0}
        tangentMode: 0
      m_PreInfinity: 2
      m_PostInfinity: 2
      m_RotationOrder: 4
    path: Bone072/Bone067/Bone062
  - curve:
      serializedVersion: 2
      m_Curve:
      - serializedVersion: 2
        time: 0
        value: {x: 1, y: 1, z: 1}
        inSlope: {x: 0, y: 0, z: 0}
        outSlope: {x: 0, y: 0, z: 0}
        tangentMode: 0
      - serializedVersion: 2
        time: 0.6666667
        value: {x: 1, y: 1, z: 1}
        inSlope: {x: 0, y: 0, z: 0}
        outSlope: {x: 0, y: 0, z: 0}
        tangentMode: 0
      m_PreInfinity: 2
      m_PostInfinity: 2
      m_RotationOrder: 4
    path: Bone072/Bone067/Bone062/Bone060
  - curve:
      serializedVersion: 2
      m_Curve:
      - serializedVersion: 2
        time: 0
        value: {x: 1, y: 1, z: 1}
        inSlope: {x: 0, y: 0, z: 0}
        outSlope: {x: 0, y: 0, z: 0}
        tangentMode: 0
      - serializedVersion: 2
        time: 0.6666667
        value: {x: 1, y: 1, z: 1}
        inSlope: {x: 0, y: 0, z: 0}
        outSlope: {x: 0, y: 0, z: 0}
        tangentMode: 0
      m_PreInfinity: 2
      m_PostInfinity: 2
      m_RotationOrder: 4
    path: Bone072/Bone067/Bone062/Bone060/Bone058
  - curve:
      serializedVersion: 2
      m_Curve:
      - serializedVersion: 2
        time: 0
        value: {x: 0.9999998, y: 0.9999998, z: 1}
        inSlope: {x: 0, y: 0, z: 0}
        outSlope: {x: 0, y: 0, z: 0}
        tangentMode: 0
      - serializedVersion: 2
        time: 0.6666667
        value: {x: 0.9999998, y: 0.9999998, z: 1}
        inSlope: {x: 0, y: 0, z: 0}
        outSlope: {x: 0, y: 0, z: 0}
        tangentMode: 0
      m_PreInfinity: 2
      m_PostInfinity: 2
      m_RotationOrder: 4
    path: Bone072/Bone067/Bone062/Bone069
  - curve:
      serializedVersion: 2
      m_Curve:
      - serializedVersion: 2
        time: 0
        value: {x: 1.0000005, y: 1.0000005, z: 1}
        inSlope: {x: 0, y: 0, z: 0}
        outSlope: {x: 0, y: 0, z: 0}
        tangentMode: 0
      - serializedVersion: 2
        time: 0.6666667
        value: {x: 1.0000005, y: 1.0000005, z: 1}
        inSlope: {x: 0, y: 0, z: 0}
        outSlope: {x: 0, y: 0, z: 0}
        tangentMode: 0
      m_PreInfinity: 2
      m_PostInfinity: 2
      m_RotationOrder: 4
    path: Bone072/Bone067/Bone062/Bone069/Bone074
  - curve:
      serializedVersion: 2
      m_Curve:
      - serializedVersion: 2
        time: 0
        value: {x: 0.9999999, y: 0.9999999, z: 1}
        inSlope: {x: 0, y: 0, z: 0}
        outSlope: {x: 0, y: 0, z: 0}
        tangentMode: 0
      - serializedVersion: 2
        time: 0.6666667
        value: {x: 0.9999999, y: 0.9999999, z: 1}
        inSlope: {x: 0, y: 0, z: 0}
        outSlope: {x: 0, y: 0, z: 0}
        tangentMode: 0
      m_PreInfinity: 2
      m_PostInfinity: 2
      m_RotationOrder: 4
    path: Bone072/Bone067/Bone062/Bone069/Bone074/Bone075
  - curve:
      serializedVersion: 2
      m_Curve:
      - serializedVersion: 2
        time: 0
        value: {x: -0.9999999, y: -0.9999997, z: -0.99999994}
        inSlope: {x: 0, y: 0, z: 0}
        outSlope: {x: 0, y: 0, z: 0}
        tangentMode: 0
      - serializedVersion: 2
        time: 0.6666667
        value: {x: -0.9999999, y: -0.99999976, z: -0.99999994}
        inSlope: {x: 0, y: 0, z: 0}
        outSlope: {x: 0, y: 0, z: 0}
        tangentMode: 0
      m_PreInfinity: 2
      m_PostInfinity: 2
      m_RotationOrder: 4
    path: Bone072/Bone067/Bone062/Bone073
  - curve:
      serializedVersion: 2
      m_Curve:
      - serializedVersion: 2
        time: 0
        value: {x: 1.0000005, y: 1.0000005, z: 1}
        inSlope: {x: 0, y: 0, z: 0}
        outSlope: {x: 0, y: 0, z: 0}
        tangentMode: 0
      - serializedVersion: 2
        time: 0.6666667
        value: {x: 1.0000005, y: 1.0000005, z: 1}
        inSlope: {x: 0, y: 0, z: 0}
        outSlope: {x: 0, y: 0, z: 0}
        tangentMode: 0
      m_PreInfinity: 2
      m_PostInfinity: 2
      m_RotationOrder: 4
    path: Bone072/Bone067/Bone062/Bone073/Bone065
  - curve:
      serializedVersion: 2
      m_Curve:
      - serializedVersion: 2
        time: 0
        value: {x: 0.9999999, y: 0.9999999, z: 1}
        inSlope: {x: 0, y: 0, z: 0}
        outSlope: {x: 0, y: 0, z: 0}
        tangentMode: 0
      - serializedVersion: 2
        time: 0.6666667
        value: {x: 0.9999999, y: 0.9999999, z: 1}
        inSlope: {x: 0, y: 0, z: 0}
        outSlope: {x: 0, y: 0, z: 0}
        tangentMode: 0
      m_PreInfinity: 2
      m_PostInfinity: 2
      m_RotationOrder: 4
    path: Bone072/Bone067/Bone062/Bone073/Bone065/Bone064
  - curve:
      serializedVersion: 2
      m_Curve:
      - serializedVersion: 2
        time: 0
        value: {x: 1, y: 1, z: 1}
        inSlope: {x: 0, y: 0, z: 0}
        outSlope: {x: 0, y: 0, z: 0}
        tangentMode: 0
      - serializedVersion: 2
        time: 0.6666667
        value: {x: 1, y: 1, z: 1}
        inSlope: {x: 0, y: 0, z: 0}
        outSlope: {x: 0, y: 0, z: 0}
        tangentMode: 0
      m_PreInfinity: 2
      m_PostInfinity: 2
      m_RotationOrder: 4
    path: Bone072/Bone067/Bone066
  - curve:
      serializedVersion: 2
      m_Curve:
      - serializedVersion: 2
        time: 0
        value: {x: 1, y: 1, z: 1}
        inSlope: {x: 0, y: 0, z: 0}
        outSlope: {x: 0, y: 0, z: 0}
        tangentMode: 0
      - serializedVersion: 2
        time: 0.6666667
        value: {x: 1, y: 1, z: 1}
        inSlope: {x: 0, y: 0, z: 0}
        outSlope: {x: 0, y: 0, z: 0}
        tangentMode: 0
      m_PreInfinity: 2
      m_PostInfinity: 2
      m_RotationOrder: 4
    path: Bone072/Bone067/Bone066/Bone076
  - curve:
      serializedVersion: 2
      m_Curve:
      - serializedVersion: 2
        time: 0
        value: {x: 1, y: 1, z: 1}
        inSlope: {x: 0, y: 0, z: 0}
        outSlope: {x: 0, y: 0, z: 0}
        tangentMode: 0
      - serializedVersion: 2
        time: 0.6666667
        value: {x: 1, y: 1, z: 1}
        inSlope: {x: 0, y: 0, z: 0}
        outSlope: {x: 0, y: 0, z: 0}
        tangentMode: 0
      m_PreInfinity: 2
      m_PostInfinity: 2
      m_RotationOrder: 4
    path: Bone072/Bone067/Bone066/Bone076/Bone068
  - curve:
      serializedVersion: 2
      m_Curve:
      - serializedVersion: 2
        time: 0
        value: {x: 1.0000002, y: 1.0000001, z: 0.99999994}
        inSlope: {x: 0, y: 0, z: 0}
        outSlope: {x: 0, y: 0, z: 0}
        tangentMode: 0
      - serializedVersion: 2
        time: 0.6666667
        value: {x: 1.0000002, y: 1.0000001, z: 0.99999994}
        inSlope: {x: 0, y: 0, z: 0}
        outSlope: {x: 0, y: 0, z: 0}
        tangentMode: 0
      m_PreInfinity: 2
      m_PostInfinity: 2
      m_RotationOrder: 4
    path: Bone072/Bone067/Bone066/Bone076/Bone068/Bone063
  - curve:
      serializedVersion: 2
      m_Curve:
      - serializedVersion: 2
        time: 0
        value: {x: 100, y: 100, z: 100}
        inSlope: {x: 0, y: 0, z: 0}
        outSlope: {x: 0, y: 0, z: 0}
        tangentMode: 0
      - serializedVersion: 2
        time: 0.6666667
        value: {x: 100.00001, y: 100.00001, z: 100.00001}
        inSlope: {x: 0, y: 0, z: 0}
        outSlope: {x: 0, y: 0, z: 0}
        tangentMode: 0
      m_PreInfinity: 2
      m_PostInfinity: 2
      m_RotationOrder: 4
    path: meen003
  m_FloatCurves: []
  m_PPtrCurves: []
  m_SampleRate: 30
  m_WrapMode: 0
  m_Bounds:
    m_Center: {x: 0, y: 0, z: 0}
    m_Extent: {x: 0, y: 0, z: 0}
  m_ClipBindingConstant:
    genericBindings:
    - serializedVersion: 2
      path: 3776699544
      attribute: 1
      script: {fileID: 0}
      typeID: 4
      customType: 0
      isPPtrCurve: 0
    - serializedVersion: 2
      path: 3167859705
      attribute: 2
      script: {fileID: 0}
      typeID: 4
      customType: 0
      isPPtrCurve: 0
    - serializedVersion: 2
      path: 3604009700
      attribute: 2
      script: {fileID: 0}
      typeID: 4
      customType: 0
      isPPtrCurve: 0
    - serializedVersion: 2
      path: 2522637231
      attribute: 2
      script: {fileID: 0}
      typeID: 4
      customType: 0
      isPPtrCurve: 0
    - serializedVersion: 2
      path: 1952656014
      attribute: 2
      script: {fileID: 0}
      typeID: 4
      customType: 0
      isPPtrCurve: 0
    - serializedVersion: 2
      path: 188547843
      attribute: 2
      script: {fileID: 0}
      typeID: 4
      customType: 0
      isPPtrCurve: 0
    - serializedVersion: 2
      path: 2963164214
      attribute: 2
      script: {fileID: 0}
      typeID: 4
      customType: 0
      isPPtrCurve: 0
    - serializedVersion: 2
      path: 3789727434
      attribute: 3
      script: {fileID: 0}
      typeID: 4
      customType: 0
      isPPtrCurve: 0
    - serializedVersion: 2
      path: 3167859705
      attribute: 1
      script: {fileID: 0}
      typeID: 4
      customType: 0
      isPPtrCurve: 0
    - serializedVersion: 2
      path: 1628137404
      attribute: 1
      script: {fileID: 0}
      typeID: 4
      customType: 0
      isPPtrCurve: 0
    - serializedVersion: 2
      path: 3604009700
      attribute: 1
      script: {fileID: 0}
      typeID: 4
      customType: 0
      isPPtrCurve: 0
    - serializedVersion: 2
      path: 2522637231
      attribute: 1
      script: {fileID: 0}
      typeID: 4
      customType: 0
      isPPtrCurve: 0
    - serializedVersion: 2
      path: 1278428331
      attribute: 1
      script: {fileID: 0}
      typeID: 4
      customType: 0
      isPPtrCurve: 0
    - serializedVersion: 2
      path: 3723816439
      attribute: 1
      script: {fileID: 0}
      typeID: 4
      customType: 0
      isPPtrCurve: 0
    - serializedVersion: 2
      path: 2796144251
      attribute: 1
      script: {fileID: 0}
      typeID: 4
      customType: 0
      isPPtrCurve: 0
    - serializedVersion: 2
      path: 1952656014
      attribute: 1
      script: {fileID: 0}
      typeID: 4
      customType: 0
      isPPtrCurve: 0
    - serializedVersion: 2
      path: 3749019359
      attribute: 1
      script: {fileID: 0}
      typeID: 4
      customType: 0
      isPPtrCurve: 0
    - serializedVersion: 2
      path: 3812668028
      attribute: 1
      script: {fileID: 0}
      typeID: 4
      customType: 0
      isPPtrCurve: 0
    - serializedVersion: 2
      path: 2338215139
      attribute: 1
      script: {fileID: 0}
      typeID: 4
      customType: 0
      isPPtrCurve: 0
    - serializedVersion: 2
      path: 649832064
      attribute: 1
      script: {fileID: 0}
      typeID: 4
      customType: 0
      isPPtrCurve: 0
    - serializedVersion: 2
      path: 4155527691
      attribute: 1
      script: {fileID: 0}
      typeID: 4
      customType: 0
      isPPtrCurve: 0
    - serializedVersion: 2
      path: 3229959153
      attribute: 1
      script: {fileID: 0}
      typeID: 4
      customType: 0
      isPPtrCurve: 0
    - serializedVersion: 2
      path: 3667470830
      attribute: 1
      script: {fileID: 0}
      typeID: 4
      customType: 0
      isPPtrCurve: 0
    - serializedVersion: 2
      path: 188547843
      attribute: 1
      script: {fileID: 0}
      typeID: 4
      customType: 0
      isPPtrCurve: 0
    - serializedVersion: 2
      path: 2963164214
      attribute: 1
      script: {fileID: 0}
      typeID: 4
      customType: 0
      isPPtrCurve: 0
    - serializedVersion: 2
      path: 2696779634
      attribute: 1
      script: {fileID: 0}
      typeID: 4
      customType: 0
      isPPtrCurve: 0
    - serializedVersion: 2
      path: 3789727434
      attribute: 1
      script: {fileID: 0}
      typeID: 4
      customType: 0
      isPPtrCurve: 0
    - serializedVersion: 2
      path: 3776699544
      attribute: 2
      script: {fileID: 0}
      typeID: 4
      customType: 0
      isPPtrCurve: 0
    - serializedVersion: 2
      path: 1628137404
      attribute: 2
      script: {fileID: 0}
      typeID: 4
      customType: 0
      isPPtrCurve: 0
    - serializedVersion: 2
      path: 1278428331
      attribute: 2
      script: {fileID: 0}
      typeID: 4
      customType: 0
      isPPtrCurve: 0
    - serializedVersion: 2
      path: 3723816439
      attribute: 2
      script: {fileID: 0}
      typeID: 4
      customType: 0
      isPPtrCurve: 0
    - serializedVersion: 2
      path: 2796144251
      attribute: 2
      script: {fileID: 0}
      typeID: 4
      customType: 0
      isPPtrCurve: 0
    - serializedVersion: 2
      path: 3749019359
      attribute: 2
      script: {fileID: 0}
      typeID: 4
      customType: 0
      isPPtrCurve: 0
    - serializedVersion: 2
      path: 3812668028
      attribute: 2
      script: {fileID: 0}
      typeID: 4
      customType: 0
      isPPtrCurve: 0
    - serializedVersion: 2
      path: 2338215139
      attribute: 2
      script: {fileID: 0}
      typeID: 4
      customType: 0
      isPPtrCurve: 0
    - serializedVersion: 2
      path: 649832064
      attribute: 2
      script: {fileID: 0}
      typeID: 4
      customType: 0
      isPPtrCurve: 0
    - serializedVersion: 2
      path: 4155527691
      attribute: 2
      script: {fileID: 0}
      typeID: 4
      customType: 0
      isPPtrCurve: 0
    - serializedVersion: 2
      path: 3229959153
      attribute: 2
      script: {fileID: 0}
      typeID: 4
      customType: 0
      isPPtrCurve: 0
    - serializedVersion: 2
      path: 3667470830
      attribute: 2
      script: {fileID: 0}
      typeID: 4
      customType: 0
      isPPtrCurve: 0
    - serializedVersion: 2
      path: 2696779634
      attribute: 2
      script: {fileID: 0}
      typeID: 4
      customType: 0
      isPPtrCurve: 0
    - serializedVersion: 2
      path: 3789727434
      attribute: 2
      script: {fileID: 0}
      typeID: 4
      customType: 0
      isPPtrCurve: 0
    - serializedVersion: 2
      path: 3776699544
      attribute: 3
      script: {fileID: 0}
      typeID: 4
      customType: 0
      isPPtrCurve: 0
    - serializedVersion: 2
      path: 3167859705
      attribute: 3
      script: {fileID: 0}
      typeID: 4
      customType: 0
      isPPtrCurve: 0
    - serializedVersion: 2
      path: 1628137404
      attribute: 3
      script: {fileID: 0}
      typeID: 4
      customType: 0
      isPPtrCurve: 0
    - serializedVersion: 2
      path: 3604009700
      attribute: 3
      script: {fileID: 0}
      typeID: 4
      customType: 0
      isPPtrCurve: 0
    - serializedVersion: 2
      path: 2522637231
      attribute: 3
      script: {fileID: 0}
      typeID: 4
      customType: 0
      isPPtrCurve: 0
    - serializedVersion: 2
      path: 1278428331
      attribute: 3
      script: {fileID: 0}
      typeID: 4
      customType: 0
      isPPtrCurve: 0
    - serializedVersion: 2
      path: 3723816439
      attribute: 3
      script: {fileID: 0}
      typeID: 4
      customType: 0
      isPPtrCurve: 0
    - serializedVersion: 2
      path: 2796144251
      attribute: 3
      script: {fileID: 0}
      typeID: 4
      customType: 0
      isPPtrCurve: 0
    - serializedVersion: 2
      path: 1952656014
      attribute: 3
      script: {fileID: 0}
      typeID: 4
      customType: 0
      isPPtrCurve: 0
    - serializedVersion: 2
      path: 3749019359
      attribute: 3
      script: {fileID: 0}
      typeID: 4
      customType: 0
      isPPtrCurve: 0
    - serializedVersion: 2
      path: 3812668028
      attribute: 3
      script: {fileID: 0}
      typeID: 4
      customType: 0
      isPPtrCurve: 0
    - serializedVersion: 2
      path: 2338215139
      attribute: 3
      script: {fileID: 0}
      typeID: 4
      customType: 0
      isPPtrCurve: 0
    - serializedVersion: 2
      path: 649832064
      attribute: 3
      script: {fileID: 0}
      typeID: 4
      customType: 0
      isPPtrCurve: 0
    - serializedVersion: 2
      path: 4155527691
      attribute: 3
      script: {fileID: 0}
      typeID: 4
      customType: 0
      isPPtrCurve: 0
    - serializedVersion: 2
      path: 3229959153
      attribute: 3
      script: {fileID: 0}
      typeID: 4
      customType: 0
      isPPtrCurve: 0
    - serializedVersion: 2
      path: 3667470830
      attribute: 3
      script: {fileID: 0}
      typeID: 4
      customType: 0
      isPPtrCurve: 0
    - serializedVersion: 2
      path: 188547843
      attribute: 3
      script: {fileID: 0}
      typeID: 4
      customType: 0
      isPPtrCurve: 0
    - serializedVersion: 2
      path: 2963164214
      attribute: 3
      script: {fileID: 0}
      typeID: 4
      customType: 0
      isPPtrCurve: 0
    - serializedVersion: 2
      path: 2696779634
      attribute: 3
      script: {fileID: 0}
      typeID: 4
      customType: 0
      isPPtrCurve: 0
    pptrCurveMapping: []
  m_AnimationClipSettings:
    serializedVersion: 2
    m_AdditiveReferencePoseClip: {fileID: 0}
    m_AdditiveReferencePoseTime: 0
    m_StartTime: 0
    m_StopTime: 0.6666667
    m_OrientationOffsetY: 0
    m_Level: 0
    m_CycleOffset: 0
    m_HasAdditiveReferencePose: 0
    m_LoopTime: 0
    m_LoopBlend: 0
    m_LoopBlendOrientation: 0
    m_LoopBlendPositionY: 0
    m_LoopBlendPositionXZ: 0
    m_KeepOriginalOrientation: 0
    m_KeepOriginalPositionY: 1
    m_KeepOriginalPositionXZ: 0
    m_HeightFromFeet: 0
    m_Mirror: 0
  m_EditorCurves: []
  m_EulerEditorCurves: []
  m_HasGenericRootTransform: 0
  m_HasMotionFloatCurves: 0
  m_GenerateMotionCurves: 0
  m_Events: []
