%YAML 1.1
%TAG !u! tag:unity3d.com,2011:
--- !u!319 &31900000
AvatarMask:
  m_ObjectHideFlags: 0
  m_PrefabParentObject: {fileID: 0}
  m_PrefabInternal: {fileID: 0}
  m_Name: shotMask
  m_Mask: 01000000010000000100000001000000010000000100000001000000010000000100000001000000010000000100000001000000
  m_Elements:
  - m_Path: 
    m_Weight: 1
  - m_Path: Bone072
    m_Weight: 1
  - m_Path: Bone072/Bone067
    m_Weight: 1
  - m_Path: Bone072/Bone067/Bone059
    m_Weight: 0
  - m_Path: Bone072/Bone067/Bone059/Bone070
    m_Weight: 0
  - m_Path: Bone072/Bone067/Bone059/Bone070/Bone061
    m_Weight: 0
  - m_Path: Bone072/Bone067/Bone059/Bone070/Bone061/Bone071
    m_Weight: 0
  - m_Path: Bone072/Bone067/Bone062
    m_Weight: 1
  - m_Path: Bone072/Bone067/Bone062/Bone060
    m_Weight: 1
  - m_Path: Bone072/Bone067/Bone062/Bone060/Bone058
    m_Weight: 1
  - m_Path: Bone072/Bone067/Bone062/Bone069
    m_Weight: 1
  - m_Path: Bone072/Bone067/Bone062/Bone069/Bone074
    m_Weight: 1
  - m_Path: Bone072/Bone067/Bone062/Bone069/Bone074/Bone075
    m_Weight: 1
  - m_Path: Bone072/Bone067/Bone062/Bone073
    m_Weight: 1
  - m_Path: Bone072/Bone067/Bone062/Bone073/Bone065
    m_Weight: 1
  - m_Path: Bone072/Bone067/Bone062/Bone073/Bone065/Bone064
    m_Weight: 1
  - m_Path: Bone072/Bone067/Bone066
    m_Weight: 0
  - m_Path: Bone072/Bone067/Bone066/Bone076
    m_Weight: 0
  - m_Path: Bone072/Bone067/Bone066/Bone076/Bone068
    m_Weight: 0
  - m_Path: Bone072/Bone067/Bone066/Bone076/Bone068/Bone063
    m_Weight: 0
  - m_Path: meen003
    m_Weight: 1
